0
SECTION
2
ENTITIES
0
LINE
8
1
62
1
10
35.7137
20
-17.7247
30
0.0
11
34.2438
21
-16.4383
31
0.0
0
LINE
8
1
62
1
10
34.2438
20
-16.4383
30
0.0
11
32.8600
21
-15.2626
31
0.0
0
LINE
8
1
62
1
10
32.8600
20
-15.2626
30
0.0
11
31.5544
21
-14.1863
31
0.0
0
LINE
8
1
62
1
10
31.5544
20
-14.1863
30
0.0
11
30.3537
21
-13.2318
31
0.0
0
LINE
8
1
62
1
10
30.3537
20
-13.2318
30
0.0
11
28.1399
21
-11.5783
31
0.0
0
LINE
8
1
62
1
10
28.1399
20
-11.5783
30
0.0
11
26.1838
21
-10.2737
31
0.0
0
LINE
8
1
62
1
10
26.1838
20
-10.2737
30
0.0
11
24.5516
21
-9.3216
31
0.0
0
LINE
8
1
62
1
10
24.5516
20
-9.3216
30
0.0
11
23.2837
21
-8.7048
31
0.0
0
LINE
8
1
62
1
10
23.2837
20
-8.7048
30
0.0
11
22.3898
21
-8.3575
31
0.0
0
LINE
8
1
62
1
10
22.3898
20
-8.3575
30
0.0
11
21.8259
21
-8.1909
31
0.0
0
LINE
8
1
62
1
10
21.8259
20
-8.1909
30
0.0
11
21.5004
21
-8.1201
31
0.0
0
LINE
8
1
62
1
10
21.5004
20
-8.1201
30
0.0
11
21.3068
21
-8.0880
31
0.0
0
LINE
8
1
62
1
10
21.3068
20
-8.0880
30
0.0
11
20.9893
21
-8.0015
31
0.0
0
LINE
8
1
62
1
10
20.9893
20
-8.0015
30
0.0
11
20.7222
21
-7.8496
31
0.0
0
LINE
8
1
62
1
10
20.7222
20
-7.8496
30
0.0
11
20.5181
21
-7.6563
31
0.0
0
LINE
8
1
62
1
10
20.5181
20
-7.6563
30
0.0
11
20.3651
21
-7.4184
31
0.0
0
LINE
8
1
62
1
10
20.3651
20
-7.4184
30
0.0
11
20.2688
21
-7.1497
31
0.0
0
LINE
8
1
62
1
10
20.2688
20
-7.1497
30
0.0
11
20.2306
21
-6.8646
31
0.0
0
LINE
8
1
62
1
10
20.2306
20
-6.8646
30
0.0
11
20.2372
21
-6.4971
31
0.0
0
LINE
8
1
62
1
10
20.2372
20
-6.4971
30
0.0
11
20.2337
21
-6.1298
31
0.0
0
LINE
8
1
62
1
10
20.2337
20
-6.1298
30
0.0
11
20.2763
21
-5.7280
31
0.0
0
LINE
8
1
62
1
10
20.2763
20
-5.7280
30
0.0
11
20.3914
21
-5.3446
31
0.0
0
LINE
8
1
62
1
10
20.3914
20
-5.3446
30
0.0
11
20.5183
21
-5.0864
31
0.0
0
LINE
8
1
62
1
10
20.5183
20
-5.0864
30
0.0
11
20.6811
21
-4.8538
31
0.0
0
LINE
8
1
62
1
10
20.6811
20
-4.8538
30
0.0
11
20.8817
21
-4.6343
31
0.0
0
LINE
8
1
62
1
10
20.8817
20
-4.6343
30
0.0
11
21.1108
21
-4.4510
31
0.0
0
LINE
8
1
62
1
10
21.1108
20
-4.4510
30
0.0
11
21.3784
21
-4.2935
31
0.0
0
LINE
8
1
62
1
10
21.3784
20
-4.2935
30
0.0
11
21.6742
21
-4.1617
31
0.0
0
LINE
8
1
62
1
10
21.6742
20
-4.1617
30
0.0
11
22.6211
21
-3.7125
31
0.0
0
LINE
8
1
62
1
10
22.6211
20
-3.7125
30
0.0
11
23.7215
21
-3.0564
31
0.0
0
LINE
8
1
62
1
10
23.7215
20
-3.0564
30
0.0
11
25.2472
21
-1.9550
31
0.0
0
LINE
8
1
62
1
10
25.2472
20
-1.9550
30
0.0
11
26.7806
21
-0.6705
31
0.0
0
LINE
8
1
62
1
10
26.7806
20
-0.6705
30
0.0
11
28.7065
21
1.1681
31
0.0
0
LINE
8
1
62
1
10
28.7065
20
1.1681
30
0.0
11
30.5270
21
3.1232
31
0.0
0
LINE
8
1
62
1
10
30.5270
20
3.1232
30
0.0
11
31.8447
21
4.7397
31
0.0
0
LINE
8
1
62
1
10
31.8447
20
4.7397
30
0.0
11
32.9229
21
6.3005
31
0.0
0
LINE
8
1
62
1
10
32.9229
20
6.3005
30
0.0
11
33.7329
21
7.6868
31
0.0
0
LINE
8
1
62
1
10
33.7329
20
7.6868
30
0.0
11
34.3860
21
9.0458
31
0.0
0
LINE
8
1
62
1
10
34.3860
20
9.0458
30
0.0
11
34.9147
21
10.4126
31
0.0
0
LINE
8
1
62
1
10
34.9147
20
10.4126
30
0.0
11
35.3069
21
11.7613
31
0.0
0
LINE
8
1
62
1
10
35.3069
20
11.7613
30
0.0
11
35.4975
21
12.6412
31
0.0
0
LINE
8
1
62
1
10
35.4975
20
12.6412
30
0.0
11
35.6317
21
13.5175
31
0.0
0
LINE
8
1
62
1
10
35.6317
20
13.5175
30
0.0
11
35.7104
21
14.3912
31
0.0
0
LINE
8
1
62
1
10
35.7104
20
14.3912
30
0.0
11
35.7190
21
15.2633
31
0.0
0
ENDSEC
0
EOF
