+0.0053
+0.0073
+0.0078
+0.0062
+0.0128
+0.0138
+0.0143
+0.0131
+0.0173
+0.0075
+0.0036
-0.0004
-0.0052
-0.0028
+0.0011
+0.0048
-0.0003
-0.0039
-0.0006
+0.0070
+0.0082
+0.0024
+0.0005
+0.0017
+0.0013
+0.0019
+0.0005
-0.0009
+0.0036
+0.0151
+0.0137
+0.0175
+0.0187
+0.0154
+0.0166
+0.0149
+0.0137
+0.0134
+0.0145
+0.0135
+0.0122
+0.0096
+0.0123
+0.0151
+0.0483
