0
SECTION
2
ENTITIES
0
LINE
8
1
62
1
10
44.9396
20
-21.9086
30
0.0
11
43.2512
21
-20.4041
31
0.0
0
LINE
8
1
62
1
10
43.2512
20
-20.4041
30
0.0
11
41.6523
21
-19.0141
31
0.0
0
LINE
8
1
62
1
10
41.6523
20
-19.0141
30
0.0
11
40.6083
21
-18.1333
31
0.0
0
LINE
8
1
62
1
10
40.6083
20
-18.1333
30
0.0
11
39.6126
21
-17.3108
31
0.0
0
LINE
8
1
62
1
10
39.6126
20
-17.3108
30
0.0
11
37.0531
21
-15.2924
31
0.0
0
LINE
8
1
62
1
10
37.0531
20
-15.2924
30
0.0
11
34.7088
21
-13.5976
31
0.0
0
LINE
8
1
62
1
10
34.7088
20
-13.5976
30
0.0
11
32.5096
21
-12.1616
31
0.0
0
LINE
8
1
62
1
10
32.5096
20
-12.1616
30
0.0
11
30.6767
21
-11.1229
31
0.0
0
LINE
8
1
62
1
10
30.6767
20
-11.1229
30
0.0
11
28.5950
21
-10.1789
31
0.0
0
LINE
8
1
62
1
10
28.5950
20
-10.1789
30
0.0
11
27.4760
21
-9.8301
31
0.0
0
LINE
8
1
62
1
10
27.4760
20
-9.8301
30
0.0
11
26.9587
21
-9.7203
31
0.0
0
LINE
8
1
62
1
10
26.9587
20
-9.7203
30
0.0
11
26.6587
21
-9.6834
31
0.0
0
LINE
8
1
62
1
10
26.6587
20
-9.6834
30
0.0
11
26.1747
21
-9.5350
31
0.0
0
LINE
8
1
62
1
10
26.1747
20
-9.5350
30
0.0
11
25.8638
21
-9.2936
31
0.0
0
LINE
8
1
62
1
10
25.8638
20
-9.2936
30
0.0
11
25.7028
21
-9.0898
31
0.0
0
LINE
8
1
62
1
10
25.7028
20
-9.0898
30
0.0
11
25.5842
21
-8.8589
31
0.0
0
LINE
8
1
62
1
10
25.5842
20
-8.8589
30
0.0
11
25.5176
21
-8.6316
31
0.0
0
LINE
8
1
62
1
10
25.5176
20
-8.6316
30
0.0
11
25.4905
21
-8.3949
31
0.0
0
LINE
8
1
62
1
10
25.4905
20
-8.3949
30
0.0
11
25.4986
21
-7.8536
31
0.0
0
LINE
8
1
62
1
10
25.4986
20
-7.8536
30
0.0
11
25.4986
21
-7.3124
31
0.0
0
LINE
8
1
62
1
10
25.4986
20
-7.3124
30
0.0
11
25.5452
21
-6.7746
31
0.0
0
LINE
8
1
62
1
10
25.5452
20
-6.7746
30
0.0
11
25.6952
21
-6.2605
31
0.0
0
LINE
8
1
62
1
10
25.6952
20
-6.2605
30
0.0
11
25.8617
21
-5.9138
31
0.0
0
LINE
8
1
62
1
10
25.8617
20
-5.9138
30
0.0
11
26.0742
21
-5.5997
31
0.0
0
LINE
8
1
62
1
10
26.0742
20
-5.5997
30
0.0
11
26.3422
21
-5.3070
31
0.0
0
LINE
8
1
62
1
10
26.3422
20
-5.3070
30
0.0
11
26.6429
21
-5.0559
31
0.0
0
LINE
8
1
62
1
10
26.6429
20
-5.0559
30
0.0
11
26.9756
21
-4.8470
31
0.0
0
LINE
8
1
62
1
10
26.9756
20
-4.8470
30
0.0
11
27.3497
21
-4.6680
31
0.0
0
LINE
8
1
62
1
10
27.3497
20
-4.6680
30
0.0
11
28.6079
21
-4.0474
31
0.0
0
LINE
8
1
62
1
10
28.6079
20
-4.0474
30
0.0
11
30.0490
21
-3.1363
31
0.0
0
LINE
8
1
62
1
10
30.0490
20
-3.1363
30
0.0
11
32.2890
21
-1.4225
31
0.0
0
LINE
8
1
62
1
10
32.2890
20
-1.4225
30
0.0
11
34.5380
21
0.5934
31
0.0
0
LINE
8
1
62
1
10
34.5380
20
0.5934
30
0.0
11
36.6272
21
2.7016
31
0.0
0
LINE
8
1
62
1
10
36.6272
20
2.7016
30
0.0
11
38.6229
21
4.9219
31
0.0
0
LINE
8
1
62
1
10
38.6229
20
4.9219
30
0.0
11
40.0369
21
6.6798
31
0.0
0
LINE
8
1
62
1
10
40.0369
20
6.6798
30
0.0
11
41.2246
21
8.3858
31
0.0
0
LINE
8
1
62
1
10
41.2246
20
8.3858
30
0.0
11
42.2098
21
10.0287
31
0.0
0
LINE
8
1
62
1
10
42.2098
20
10.0287
30
0.0
11
43.0246
21
11.6370
31
0.0
0
LINE
8
1
62
1
10
43.0246
20
11.6370
30
0.0
11
43.6852
21
13.2164
31
0.0
0
LINE
8
1
62
1
10
43.6852
20
13.2164
30
0.0
11
44.2050
21
14.7727
31
0.0
0
LINE
8
1
62
1
10
44.2050
20
14.7727
30
0.0
11
44.5695
21
16.2099
31
0.0
0
LINE
8
1
62
1
10
44.5695
20
16.2099
30
0.0
11
44.8193
21
17.6373
31
0.0
0
LINE
8
1
62
1
10
44.8193
20
17.6373
30
0.0
11
44.9420
21
18.8566
31
0.0
0
LINE
8
1
62
1
10
44.9420
20
18.8566
30
0.0
11
44.9529
21
20.0732
31
0.0
0
ENDSEC
0
EOF
