+0.012
+0.013
+0.013
+0.013
+0.012
+0.010
+0.011
+0.012
+0.010
+0.010
+0.009
+0.010
+0.008
+0.006
+0.005
+0.004
+0.002
+0.000
+0.003
+0.003
+0.008
+0.010
+0.011
+0.014
+0.013
+0.013
+0.010
+0.013
+0.007
+0.010
+0.011
+0.012
+0.011
+0.012
+0.012
+0.011
+0.013
+0.010
+0.009
+0.004
+0.007
+0.001
-0.001
-0.007
+0.047
