 +29.9226 -12.0001 +37.3824        
 +28.3532 -10.7962 +35.8524        
 +26.8605 -9.7458 +34.1325        
 +25.2771 -8.7116 +31.881         
 +23.8574 -7.8686 +29.2743        
 +22.6380 -7.2219 +26.3072        
 +21.6503 -6.7639 +23.0778        
 +20.3317 -6.2786 +16.5527        
 +19.8713 -6.1526 +13.8653        
 +19.7187 -6.1140 +15.2966        
 +19.6556 -6.0949 +18.9377        
 +19.5626 -6.0524 +31.5039        
 +19.4965 -5.9995 +46.2189        
 +19.4397 -5.9136 +67.3923        
 +19.4200 -5.8159 +89.9989        
 +19.4200 -5.0449 +89.9989        
 +19.4200 -4.2739 +89.999         
 +19.4580 -3.9711 +75.7694        
 +19.5703 -3.6813 +62.0309        
 +19.7259 -3.4476 +50.905         
 +19.9370 -3.2312 +40.9594        
 +20.4918 -2.7755 +38.0828        
 +21.1900 -2.2472 +36.4213        
 +21.8252 -1.7830 +36.0303        
 +22.6259 -1.1989 +36.2864        
 +23.4867 -0.5594 +36.9666        
 +24.5420 +0.2495 +37.9892        
 +25.8135 +1.3378 +43.1528        
 +26.8491 +2.3931 +48.0035        
 +27.5752 +3.2589 +52.0987        
 +28.1882 +4.1079 +56.3201        
 +28.8138 +5.1503 +61.8658        
 +29.2977 +6.1765 +67.7615        
 +29.6503 +7.1911 +74.0069        
 +29.8783 +8.1976 +80.5476        
 +29.9659 +8.8994 +85.2495        
 +29.9950 +9.6000 +89.9986        
