+0.004
+0.006
+0.003
+0.003
+0.004
+0.001
+0.002
+0.001
+0.002
+0.001
+0.002
+0.003
+0.003
+0.004
+0.003
+0.003
+0.003
+0.004
+0.007
+0.002
+0.009
+0.017
+0.021
+0.018
+0.014
+0.010
+0.008
+0.003
-0.001
+0.005
+0.003
+0.007
+0.006
+0.007
+0.009
+0.010
+0.014
+0.011
+0.014
+0.015
+0.010
+0.007
-0.001
-0.001
+0.028
