-0.0048
+0.0002
+0.0098
+0.0080
+0.0061
+0.0080
+0.0052
+0.0060
+0.0050
+0.0027
-0.0106
-0.0007
+0.0039
+0.0033
+0.0044
+0.0037
+0.0039
+0.0035
+0.0046
+0.0042
+0.0076
+0.0048
+0.0050
+0.0055
+0.0065
+0.0076
+0.0047
+0.0052
+0.0054
+0.0050
+0.0033
+0.0028
+0.0000
+0.0008
+0.0017
+0.0014
+0.0016
+0.0020
+0.0018
+0.0010
-0.0004
+0.0007
+0.0009
+0.0008
+0.0011
+0.0002
+0.0003
+0.0015
+0.0028
+0.0043
+0.0044
+0.0076
+0.0087
+0.0126
+0.0079
-0.0014
-0.0109
+0.0047
+0.0076
+0.0000
