0
SECTION
2
ENTITIES
0
LINE
8
1
62
1
10
-20.6738
20
37.1239
30
0.0
11
-20.4530
21
37.2263
31
0.0
0
LINE
8
1
62
1
10
-20.4530
20
37.2263
30
0.0
11
-20.2231
21
37.3042
31
0.0
0
LINE
8
1
62
1
10
-20.2231
20
37.3042
30
0.0
11
-19.9918
21
37.3748
31
0.0
0
LINE
8
1
62
1
10
-19.9918
20
37.3748
30
0.0
11
-19.7553
21
37.4275
31
0.0
0
LINE
8
1
62
1
10
-19.7553
20
37.4275
30
0.0
11
-19.3936
21
37.4609
31
0.0
0
LINE
8
1
62
1
10
-19.3936
20
37.4609
30
0.0
11
-19.0299
21
37.4522
31
0.0
0
LINE
8
1
62
1
10
-19.0299
20
37.4522
30
0.0
11
-18.6004
21
37.3737
31
0.0
0
LINE
8
1
62
1
10
-18.6004
20
37.3737
30
0.0
11
-18.1882
21
37.2296
31
0.0
0
LINE
8
1
62
1
10
-18.1882
20
37.2296
30
0.0
11
-17.7808
21
37.0102
31
0.0
0
LINE
8
1
62
1
10
-17.7808
20
37.0102
30
0.0
11
-17.4046
21
36.7373
31
0.0
0
LINE
8
1
62
1
10
-17.4046
20
36.7373
30
0.0
11
-16.3504
21
35.7299
31
0.0
0
LINE
8
1
62
1
10
-16.3504
20
35.7299
30
0.0
11
-15.2989
21
34.7201
31
0.0
0
LINE
8
1
62
1
10
-15.2989
20
34.7201
30
0.0
11
-14.2503
21
33.7071
31
0.0
0
LINE
8
1
62
1
10
-14.2503
20
33.7071
30
0.0
11
-13.2110
21
32.6846
31
0.0
0
LINE
8
1
62
1
10
-13.2110
20
32.6846
30
0.0
11
-12.1782
21
31.6557
31
0.0
0
LINE
8
1
62
1
10
-12.1782
20
31.6557
30
0.0
11
-11.1538
21
30.6182
31
0.0
0
LINE
8
1
62
1
10
-11.1538
20
30.6182
30
0.0
11
-10.1749
21
29.6674
31
0.0
0
LINE
8
1
62
1
10
-10.1749
20
29.6674
30
0.0
11
-9.1518
21
28.7640
31
0.0
0
LINE
8
1
62
1
10
-9.1518
20
28.7640
30
0.0
11
-8.0036
21
27.8517
31
0.0
0
LINE
8
1
62
1
10
-8.0036
20
27.8517
30
0.0
11
-6.8116
21
26.9968
31
0.0
0
LINE
8
1
62
1
10
-6.8116
20
26.9968
30
0.0
11
-5.3627
21
26.0864
31
0.0
0
LINE
8
1
62
1
10
-5.3627
20
26.0864
30
0.0
11
-3.8626
21
25.2634
31
0.0
0
LINE
8
1
62
1
10
-3.8626
20
25.2634
30
0.0
11
-2.3152
21
24.5331
31
0.0
0
LINE
8
1
62
1
10
-2.3152
20
24.5331
30
0.0
11
-0.7262
21
23.8981
31
0.0
0
LINE
8
1
62
1
10
-0.7262
20
23.8981
30
0.0
11
1.6044
21
23.1624
31
0.0
0
LINE
8
1
62
1
10
1.6044
20
23.1624
30
0.0
11
3.9915
21
22.6361
31
0.0
0
LINE
8
1
62
1
10
3.9915
20
22.6361
30
0.0
11
5.3474
21
22.4977
31
0.0
0
LINE
8
1
62
1
10
5.3474
20
22.4977
30
0.0
11
6.7504
21
22.5620
31
0.0
0
LINE
8
1
62
1
10
6.7504
20
22.5620
30
0.0
11
7.8419
21
22.7568
31
0.0
0
LINE
8
1
62
1
10
7.8419
20
22.7568
30
0.0
11
8.9746
21
23.0982
31
0.0
0
LINE
8
1
62
1
10
8.9746
20
23.0982
30
0.0
11
10.0566
21
23.5618
31
0.0
0
LINE
8
1
62
1
10
10.0566
20
23.5618
30
0.0
11
11.1849
21
24.2068
31
0.0
0
LINE
8
1
62
1
10
11.1849
20
24.2068
30
0.0
11
12.1498
21
24.8995
31
0.0
0
LINE
8
1
62
1
10
12.1498
20
24.8995
30
0.0
11
13.1539
21
25.7877
31
0.0
0
LINE
8
1
62
1
10
13.1539
20
25.7877
30
0.0
11
14.0788
21
26.7920
31
0.0
0
LINE
8
1
62
1
10
14.0788
20
26.7920
30
0.0
11
15.0317
21
28.0675
31
0.0
0
LINE
8
1
62
1
10
15.0317
20
28.0675
30
0.0
11
15.7586
21
29.2666
31
0.0
0
LINE
8
1
62
1
10
15.7586
20
29.2666
30
0.0
11
16.4834
21
30.7552
31
0.0
0
LINE
8
1
62
1
10
16.4834
20
30.7552
30
0.0
11
17.0142
21
32.1439
31
0.0
0
LINE
8
1
62
1
10
17.0142
20
32.1439
30
0.0
11
17.5077
21
33.8598
31
0.0
0
LINE
8
1
62
1
10
17.5077
20
33.8598
30
0.0
11
17.5283
21
33.9312
31
0.0
0
LINE
8
1
62
1
10
17.5283
20
33.9312
30
0.0
11
17.5514
21
34.0017
31
0.0
0
LINE
8
1
62
1
10
17.5514
20
34.0017
30
0.0
11
17.7574
21
34.5261
31
0.0
0
LINE
8
1
62
1
10
17.7574
20
34.5261
30
0.0
11
18.0027
21
35.0333
31
0.0
0
LINE
8
1
62
1
10
18.0027
20
35.0333
30
0.0
11
18.2841
21
35.5212
31
0.0
0
LINE
8
1
62
1
10
18.2841
20
35.5212
30
0.0
11
18.6022
21
35.9861
31
0.0
0
LINE
8
1
62
1
10
18.6022
20
35.9861
30
0.0
11
18.9558
21
36.4245
31
0.0
0
LINE
8
1
62
1
10
18.9558
20
36.4245
30
0.0
11
19.3412
21
36.8350
31
0.0
0
LINE
8
1
62
1
10
19.3412
20
36.8350
30
0.0
11
19.5501
21
36.9997
31
0.0
0
LINE
8
1
62
1
10
19.5501
20
36.9997
30
0.0
11
19.7888
21
37.1162
31
0.0
0
LINE
8
1
62
1
10
19.7888
20
37.1162
30
0.0
11
20.0473
21
37.1748
31
0.0
0
LINE
8
1
62
1
10
20.0473
20
37.1748
30
0.0
11
20.3112
21
37.1795
31
0.0
0
LINE
8
1
62
1
10
20.3112
20
37.1795
30
0.0
11
20.4410
21
37.1561
31
0.0
0
LINE
8
1
62
1
10
20.4410
20
37.1561
30
0.0
11
20.5702
21
37.1296
31
0.0
0
LINE
8
1
62
1
10
20.5702
20
37.1296
30
0.0
11
20.6989
21
37.0952
31
0.0
0
LINE
8
1
62
1
10
20.6989
20
37.0952
30
0.0
11
20.8244
21
37.0467
31
0.0
0
ENDSEC
0
EOF
