-20.6738   37.1239   0
-20.4530   37.2263   0
-20.2231   37.3042   0
-19.9918   37.3748   0
-19.7553   37.4275   0
-19.3936   37.4609   0
-19.0299   37.4522   0
-18.6004   37.3737   0
-18.1882   37.2296   0
-17.7808   37.0102   0
-17.4046   36.7373   0
-16.3504   35.7299   0
-15.2989   34.7201   0
-14.2503   33.7071   0
-13.2110   32.6846   0
-12.1782   31.6557   0
-11.1538   30.6182   0
-10.1749   29.6674   0
-9.1518   28.7640   0
-8.0036   27.8517   0
-6.8116   26.9968   0
-5.3627   26.0864   0
-3.8626   25.2634   0
-2.3152   24.5331   0
-0.7262   23.8981   0
1.6044   23.1624   0
3.9915   22.6361   0
5.3474   22.4977   0
6.7504   22.5620   0
7.8419   22.7568   0
8.9746   23.0982   0
10.0566   23.5618   0
11.1849   24.2068   0
12.1498   24.8995   0
13.1539   25.7877   0
14.0788   26.7920   0
15.0317   28.0675   0
15.7586   29.2666   0
16.4834   30.7552   0
17.0142   32.1439   0
17.5077   33.8598   0
17.5283   33.9312   0
17.5514   34.0017   0
17.7574   34.5261   0
18.0027   35.0333   0
18.2841   35.5212   0
18.6022   35.9861   0
18.9558   36.4245   0
19.3412   36.8350   0
19.5501   36.9997   0
19.7888   37.1162   0
20.0473   37.1748   0
20.3112   37.1795   0
20.4410   37.1561   0
20.5702   37.1296   0
20.6989   37.0952   0
20.8244   37.0467   0
