57.4460   -21.3943   0
54.8202   -19.4587   0
52.2730   -17.6802   0
49.2251   -15.6873   0
46.3881   -13.9945   0
44.0946   -12.7565   0
42.0619   -11.8057   0
39.9681   -10.9865   0
38.4547   -10.5458   0
37.7058   -10.3909   0
37.3489   -10.3546   0
36.9479   -10.3161   0
36.5457   -10.2116   0
36.1868   -10.0346   0
35.8797   -9.7874   0
35.6994   -9.5726   0
35.5623   -9.3319   0
35.4198   -8.9145   0
35.3671   -8.4779   0
35.3969   -7.9867   0
35.4890   -7.5035   0
35.6262   -7.0514   0
35.8172   -6.6180   0
36.2927   -5.8341   0
36.8927   -5.1141   0
37.4644   -4.5701   0
38.1351   -4.0424   0
38.9581   -3.4907   0
40.0603   -2.8182   0
41.0252   -2.2517   0
42.3307   -1.4798   0
43.2834   -0.9071   0
44.4219   -0.2002   0
47.5435   2.0591   0
50.0179   4.2387   0
51.8388   6.1449   0
53.3419   8.0085   0
54.5764   9.8340   0
55.5712   11.6295   0
56.3524   13.3997   0
56.9191   15.1562   0
57.3493   17.2863   0
57.4333   19.4082   0
