0
SECTION
2
ENTITIES
0
LINE
8
1
62
1
10
-12.2829
20
19.7932
30
0.0
11
-11.3029
21
20.3909
31
0.0
0
LINE
8
1
62
1
10
-11.3029
20
20.3909
30
0.0
11
-10.7783
21
20.6706
31
0.0
0
LINE
8
1
62
1
10
-10.7783
20
20.6706
30
0.0
11
-10.5910
21
20.7446
31
0.0
0
LINE
8
1
62
1
10
-10.5910
20
20.7446
30
0.0
11
-10.3945
21
20.7842
31
0.0
0
LINE
8
1
62
1
10
-10.3945
20
20.7842
30
0.0
11
-10.1601
21
20.8135
31
0.0
0
LINE
8
1
62
1
10
-10.1601
20
20.8135
30
0.0
11
-9.9235
21
20.8069
31
0.0
0
LINE
8
1
62
1
10
-9.9235
20
20.8069
30
0.0
11
-9.7349
21
20.7666
31
0.0
0
LINE
8
1
62
1
10
-9.7349
20
20.7666
30
0.0
11
-9.5499
21
20.7110
31
0.0
0
LINE
8
1
62
1
10
-9.5499
20
20.7110
30
0.0
11
-9.0580
21
20.4709
31
0.0
0
LINE
8
1
62
1
10
-9.0580
20
20.4709
30
0.0
11
-8.5926
21
20.1829
31
0.0
0
LINE
8
1
62
1
10
-8.5926
20
20.1829
30
0.0
11
-8.1962
21
19.8758
31
0.0
0
LINE
8
1
62
1
10
-8.1962
20
19.8758
30
0.0
11
-7.8292
21
19.5338
31
0.0
0
LINE
8
1
62
1
10
-7.8292
20
19.5338
30
0.0
11
-7.5395
21
19.2063
31
0.0
0
LINE
8
1
62
1
10
-7.5395
20
19.2063
30
0.0
11
-7.2763
21
18.8571
31
0.0
0
LINE
8
1
62
1
10
-7.2763
20
18.8571
30
0.0
11
-6.4227
21
17.7424
31
0.0
0
LINE
8
1
62
1
10
-6.4227
20
17.7424
30
0.0
11
-5.4748
21
16.7076
31
0.0
0
LINE
8
1
62
1
10
-5.4748
20
16.7076
30
0.0
11
-4.4895
21
15.8058
31
0.0
0
LINE
8
1
62
1
10
-4.4895
20
15.8058
30
0.0
11
-3.4303
21
14.9917
31
0.0
0
LINE
8
1
62
1
10
-3.4303
20
14.9917
30
0.0
11
-2.2447
21
14.2426
31
0.0
0
LINE
8
1
62
1
10
-2.2447
20
14.2426
30
0.0
11
-0.9973
21
13.6020
31
0.0
0
LINE
8
1
62
1
10
-0.9973
20
13.6020
30
0.0
11
0.6853
21
12.9554
31
0.0
0
LINE
8
1
62
1
10
0.6853
20
12.9554
30
0.0
11
2.4317
21
12.5096
31
0.0
0
LINE
8
1
62
1
10
2.4317
20
12.5096
30
0.0
11
3.4467
21
12.4154
31
0.0
0
LINE
8
1
62
1
10
3.4467
20
12.4154
30
0.0
11
4.5144
21
12.5220
31
0.0
0
LINE
8
1
62
1
10
4.5144
20
12.5220
30
0.0
11
5.6548
21
12.8763
31
0.0
0
LINE
8
1
62
1
10
5.6548
20
12.8763
30
0.0
11
6.8904
21
13.5747
31
0.0
0
LINE
8
1
62
1
10
6.8904
20
13.5747
30
0.0
11
7.8676
21
14.4033
31
0.0
0
LINE
8
1
62
1
10
7.8676
20
14.4033
30
0.0
11
8.8999
21
15.6915
31
0.0
0
LINE
8
1
62
1
10
8.8999
20
15.6915
30
0.0
11
9.8014
21
17.4059
31
0.0
0
LINE
8
1
62
1
10
9.8014
20
17.4059
30
0.0
11
10.5761
21
20.3326
31
0.0
0
LINE
8
1
62
1
10
10.5761
20
20.3326
30
0.0
11
10.5815
21
20.3509
31
0.0
0
LINE
8
1
62
1
10
10.5815
20
20.3509
30
0.0
11
10.5860
21
20.3691
31
0.0
0
LINE
8
1
62
1
10
10.5860
20
20.3691
30
0.0
11
10.5918
21
20.3882
31
0.0
0
LINE
8
1
62
1
10
10.5918
20
20.3882
30
0.0
11
10.5999
21
20.4061
31
0.0
0
LINE
8
1
62
1
10
10.5999
20
20.4061
30
0.0
11
10.6109
21
20.4256
31
0.0
0
LINE
8
1
62
1
10
10.6109
20
20.4256
30
0.0
11
10.6229
21
20.4443
31
0.0
0
LINE
8
1
62
1
10
10.6229
20
20.4443
30
0.0
11
10.6409
21
20.4721
31
0.0
0
LINE
8
1
62
1
10
10.6409
20
20.4721
30
0.0
11
10.6612
21
20.4986
31
0.0
0
LINE
8
1
62
1
10
10.6612
20
20.4986
30
0.0
11
10.6917
21
20.5290
31
0.0
0
LINE
8
1
62
1
10
10.6917
20
20.5290
30
0.0
11
10.7270
21
20.5544
31
0.0
0
LINE
8
1
62
1
10
10.7270
20
20.5544
30
0.0
11
10.7848
21
20.5808
31
0.0
0
LINE
8
1
62
1
10
10.7848
20
20.5808
30
0.0
11
10.8474
21
20.5958
31
0.0
0
LINE
8
1
62
1
10
10.8474
20
20.5958
30
0.0
11
10.9314
21
20.5811
31
0.0
0
LINE
8
1
62
1
10
10.9314
20
20.5811
30
0.0
11
11.0078
21
20.5484
31
0.0
0
ENDSEC
0
EOF
