44.9362   -21.9124   0
43.2479   -20.4078   0
41.6467   -19.0207   0
40.6043   -18.1381   0
39.6037   -17.3218   0
37.0423   -15.3067   0
34.6997   -13.6108   0
32.5005   -12.1767   0
30.6666   -11.1423   0
28.5916   -10.1879   0
27.4754   -9.8325   0
26.9583   -9.7232   0
26.6597   -9.6756   0
26.1752   -9.5340   0
25.8542   -9.3030   0
25.6876   -9.0995   0
25.5753   -8.8623   0
25.5153   -8.6320   0
25.4906   -8.3949   0
25.4830   -7.8536   0
25.4818   -7.3124   0
25.5389   -6.7733   0
25.6920   -6.2592   0
25.8591   -5.9123   0
26.0715   -5.5976   0
26.3378   -5.3024   0
26.6413   -5.0536   0
26.9759   -4.8475   0
27.3486   -4.6653   0
28.5975   -4.0289   0
30.0404   -3.1237   0
32.2788   -1.4103   0
34.5270   0.6049   0
36.6196   2.7088   0
38.6162   4.9277   0
40.0314   6.6840   0
41.2221   8.3874   0
42.2084   10.0295   0
43.0243   11.6371   0
43.6881   13.2154   0
44.2081   14.7718   0
44.5716   16.2094   0
44.8153   17.6378   0
44.9344   18.8571   0
44.9417   20.0732   0
