+0.010
+0.021
+0.032
+0.034
+0.034
+0.037
+0.029
+0.028
+0.022
+0.018
+0.013
+0.013
+0.006
-0.002
-0.001
+0.002
+0.003
+0.003
+0.002
+0.001
+0.000
-0.001
-0.012
-0.013
-0.011
-0.007
-0.009
-0.008
-0.006
-0.003
-0.000
+0.002
+0.003
+0.005
+0.003
+0.005
+0.005
+0.004
+0.004
+0.003
+0.003
+0.005
+0.004
+0.005
+0.007
+0.007
+0.002
+0.001
+0.000
+0.006
+0.006
+0.000
