-23.2909   40.3268   0
-22.7031   40.6041   0
-22.0856   40.8017   0
-21.6430   40.8958   0
-21.1942   40.9508   0
-20.1506   40.9423   0
-19.1197   40.7789   0
-18.1627   40.4562   0
-17.2634   39.9948   0
-16.5772   39.5049   0
-15.9586   38.9306   0
-15.5280   38.4169   0
-15.1451   37.8658   0
-13.7065   35.7126   0
-12.0954   33.6859   0
-10.4987   31.9832   0
-8.7717   30.4127   0
-6.9256   28.9839   0
-4.9728   27.7049   0
-2.9258   26.5831   0
-0.7972   25.6253   0
1.8961   24.6862   0
4.6689   24.0188   0
6.0717   23.8484   0
7.5231   23.8726   0
8.8450   24.0712   0
10.2241   24.4689   0
11.6745   25.0992   0
13.2070   26.0349   0
14.5960   27.1614   0
16.0551   28.7133   0
17.3156   30.4762   0
18.5843   32.8920   0
19.5126   35.4436   0
20.2662   39.0443   0
20.2805   39.1185   0
20.2946   39.1922   0
20.3187   39.2948   0
20.3490   39.3963   0
20.3825   39.4883   0
20.4204   39.5785   0
20.5061   39.7360   0
20.6026   39.8869   0
20.7474   40.0629   0
20.9131   40.2191   0
21.2345   40.4391   0
21.5933   40.5938   0
21.9783   40.6649   0
22.3699   40.6542   0
22.8399   40.5371   0
