0
SECTION
2
ENTITIES
0
LINE
8
1
62
1
10
-20.6722
20
37.1210
30
0.0
11
-20.4536
21
37.2277
31
0.0
0
LINE
8
1
62
1
10
-20.4536
20
37.2277
30
0.0
11
-20.2267
21
37.3146
31
0.0
0
LINE
8
1
62
1
10
-20.2267
20
37.3146
30
0.0
11
-19.9932
21
37.3804
31
0.0
0
LINE
8
1
62
1
10
-19.9932
20
37.3804
30
0.0
11
-19.7554
21
37.4280
31
0.0
0
LINE
8
1
62
1
10
-19.7554
20
37.4280
30
0.0
11
-19.3937
21
37.4664
31
0.0
0
LINE
8
1
62
1
10
-19.3937
20
37.4664
30
0.0
11
-19.0300
21
37.4518
31
0.0
0
LINE
8
1
62
1
10
-19.0300
20
37.4518
30
0.0
11
-18.5997
21
37.3762
31
0.0
0
LINE
8
1
62
1
10
-18.5997
20
37.3762
30
0.0
11
-18.1970
21
37.2096
31
0.0
0
LINE
8
1
62
1
10
-18.1970
20
37.2096
30
0.0
11
-17.8075
21
36.9698
31
0.0
0
LINE
8
1
62
1
10
-17.8075
20
36.9698
30
0.0
11
-17.4436
21
36.6953
31
0.0
0
LINE
8
1
62
1
10
-17.4436
20
36.6953
30
0.0
11
-16.3832
21
35.6952
31
0.0
0
LINE
8
1
62
1
10
-16.3832
20
35.6952
30
0.0
11
-15.3086
21
34.7100
31
0.0
0
LINE
8
1
62
1
10
-15.3086
20
34.7100
30
0.0
11
-14.2511
21
33.7063
31
0.0
0
LINE
8
1
62
1
10
-14.2511
20
33.7063
30
0.0
11
-13.2070
21
32.6887
31
0.0
0
LINE
8
1
62
1
10
-13.2070
20
32.6887
30
0.0
11
-12.1760
21
31.6579
31
0.0
0
LINE
8
1
62
1
10
-12.1760
20
31.6579
30
0.0
11
-11.1497
21
30.6223
31
0.0
0
LINE
8
1
62
1
10
-11.1497
20
30.6223
30
0.0
11
-10.1724
21
29.6702
31
0.0
0
LINE
8
1
62
1
10
-10.1724
20
29.6702
30
0.0
11
-9.1486
21
28.7679
31
0.0
0
LINE
8
1
62
1
10
-9.1486
20
28.7679
30
0.0
11
-7.9999
21
27.8565
31
0.0
0
LINE
8
1
62
1
10
-7.9999
20
27.8565
30
0.0
11
-6.8064
21
27.0045
31
0.0
0
LINE
8
1
62
1
10
-6.8064
20
27.0045
30
0.0
11
-5.3590
21
26.0927
31
0.0
0
LINE
8
1
62
1
10
-5.3590
20
26.0927
30
0.0
11
-3.8599
21
25.2686
31
0.0
0
LINE
8
1
62
1
10
-3.8599
20
25.2686
30
0.0
11
-2.3128
21
24.5385
31
0.0
0
LINE
8
1
62
1
10
-2.3128
20
24.5385
30
0.0
11
-0.7237
21
23.9049
31
0.0
0
LINE
8
1
62
1
10
-0.7237
20
23.9049
30
0.0
11
1.6063
21
23.1692
31
0.0
0
LINE
8
1
62
1
10
1.6063
20
23.1692
30
0.0
11
3.9920
21
22.6391
31
0.0
0
LINE
8
1
62
1
10
3.9920
20
22.6391
30
0.0
11
5.3475
21
22.5018
31
0.0
0
LINE
8
1
62
1
10
5.3475
20
22.5018
30
0.0
11
6.7495
21
22.5690
31
0.0
0
LINE
8
1
62
1
10
6.7495
20
22.5690
30
0.0
11
7.8405
21
22.7627
31
0.0
0
LINE
8
1
62
1
10
7.8405
20
22.7627
30
0.0
11
8.9735
21
23.1013
31
0.0
0
LINE
8
1
62
1
10
8.9735
20
23.1013
30
0.0
11
10.0540
21
23.5670
31
0.0
0
LINE
8
1
62
1
10
10.0540
20
23.5670
30
0.0
11
11.1848
21
24.2069
31
0.0
0
LINE
8
1
62
1
10
11.1848
20
24.2069
30
0.0
11
12.1498
21
24.8995
31
0.0
0
LINE
8
1
62
1
10
12.1498
20
24.8995
30
0.0
11
13.1521
21
25.7895
31
0.0
0
LINE
8
1
62
1
10
13.1521
20
25.7895
30
0.0
11
14.0789
21
26.7919
31
0.0
0
LINE
8
1
62
1
10
14.0789
20
26.7919
30
0.0
11
15.0299
21
28.0688
31
0.0
0
LINE
8
1
62
1
10
15.0299
20
28.0688
30
0.0
11
15.7563
21
29.2679
31
0.0
0
LINE
8
1
62
1
10
15.7563
20
29.2679
30
0.0
11
16.4798
21
30.7567
31
0.0
0
LINE
8
1
62
1
10
16.4798
20
30.7567
30
0.0
11
17.0120
21
32.1446
31
0.0
0
LINE
8
1
62
1
10
17.0120
20
32.1446
30
0.0
11
17.5081
21
33.8597
31
0.0
0
LINE
8
1
62
1
10
17.5081
20
33.8597
30
0.0
11
17.5289
21
33.9310
31
0.0
0
LINE
8
1
62
1
10
17.5289
20
33.9310
30
0.0
11
17.5504
21
34.0021
31
0.0
0
LINE
8
1
62
1
10
17.5504
20
34.0021
30
0.0
11
17.7576
21
34.5260
31
0.0
0
LINE
8
1
62
1
10
17.7576
20
34.5260
30
0.0
11
17.9993
21
35.0351
31
0.0
0
LINE
8
1
62
1
10
17.9993
20
35.0351
30
0.0
11
18.2830
21
35.5219
31
0.0
0
LINE
8
1
62
1
10
18.2830
20
35.5219
30
0.0
11
18.6011
21
35.9869
31
0.0
0
LINE
8
1
62
1
10
18.6011
20
35.9869
30
0.0
11
18.9529
21
36.4270
31
0.0
0
LINE
8
1
62
1
10
18.9529
20
36.4270
30
0.0
11
19.3359
21
36.8404
31
0.0
0
LINE
8
1
62
1
10
19.3359
20
36.8404
30
0.0
11
19.5447
21
37.0081
31
0.0
0
LINE
8
1
62
1
10
19.5447
20
37.0081
30
0.0
11
19.7854
21
37.1256
31
0.0
0
LINE
8
1
62
1
10
19.7854
20
37.1256
30
0.0
11
20.0456
21
37.1874
31
0.0
0
LINE
8
1
62
1
10
20.0456
20
37.1874
30
0.0
11
20.3116
21
37.1839
31
0.0
0
LINE
8
1
62
1
10
20.3116
20
37.1839
30
0.0
11
20.4433
21
37.1680
31
0.0
0
LINE
8
1
62
1
10
20.4433
20
37.1680
30
0.0
11
20.5748
21
37.1444
31
0.0
0
LINE
8
1
62
1
10
20.5748
20
37.1444
30
0.0
11
20.7016
21
37.1017
31
0.0
0
LINE
8
1
62
1
10
20.7016
20
37.1017
30
0.0
11
20.8237
21
37.0453
31
0.0
0
ENDSEC
0
EOF
