-12.2829   19.7932   0
-11.3029   20.3909   0
-10.7783   20.6706   0
-10.5910   20.7446   0
-10.3945   20.7842   0
-10.1601   20.8135   0
-9.9235   20.8069   0
-9.7349   20.7666   0
-9.5499   20.7110   0
-9.0580   20.4709   0
-8.5926   20.1829   0
-8.1962   19.8758   0
-7.8292   19.5338   0
-7.5395   19.2063   0
-7.2763   18.8571   0
-6.4227   17.7424   0
-5.4748   16.7076   0
-4.4895   15.8058   0
-3.4303   14.9917   0
-2.2447   14.2426   0
-0.9973   13.6020   0
0.6853   12.9554   0
2.4317   12.5096   0
3.4467   12.4154   0
4.5144   12.5220   0
5.6548   12.8763   0
6.8904   13.5747   0
7.8676   14.4033   0
8.8999   15.6915   0
9.8014   17.4059   0
10.5761   20.3326   0
10.5815   20.3509   0
10.5860   20.3691   0
10.5918   20.3882   0
10.5999   20.4061   0
10.6109   20.4256   0
10.6229   20.4443   0
10.6409   20.4721   0
10.6612   20.4986   0
10.6917   20.5290   0
10.7270   20.5544   0
10.7848   20.5808   0
10.8474   20.5958   0
10.9314   20.5811   0
11.0078   20.5484   0
