0
SECTION
2
ENTITIES
0
LINE
8
1
62
1
10
-16.5435
20
29.3860
30
0.0
11
-16.3812
21
29.4653
31
0.0
0
LINE
8
1
62
1
10
-16.3812
20
29.4653
30
0.0
11
-16.2136
21
29.5332
31
0.0
0
LINE
8
1
62
1
10
-16.2136
20
29.5332
30
0.0
11
-16.0418
21
29.5887
31
0.0
0
LINE
8
1
62
1
10
-16.0418
20
29.5887
30
0.0
11
-15.8658
21
29.6280
31
0.0
0
LINE
8
1
62
1
10
-15.8658
20
29.6280
30
0.0
11
-15.5965
21
29.6697
31
0.0
0
LINE
8
1
62
1
10
-15.5965
20
29.6697
30
0.0
11
-15.3231
21
29.6628
31
0.0
0
LINE
8
1
62
1
10
-15.3231
20
29.6628
30
0.0
11
-15.0001
21
29.6056
31
0.0
0
LINE
8
1
62
1
10
-15.0001
20
29.6056
30
0.0
11
-14.6900
21
29.4980
31
0.0
0
LINE
8
1
62
1
10
-14.6900
20
29.4980
30
0.0
11
-14.3686
21
29.3213
31
0.0
0
LINE
8
1
62
1
10
-14.3686
20
29.3213
30
0.0
11
-14.0825
21
29.0920
31
0.0
0
LINE
8
1
62
1
10
-14.0825
20
29.0920
30
0.0
11
-13.2681
21
28.3038
31
0.0
0
LINE
8
1
62
1
10
-13.2681
20
28.3038
30
0.0
11
-12.4521
21
27.5170
31
0.0
0
LINE
8
1
62
1
10
-12.4521
20
27.5170
30
0.0
11
-11.6402
21
26.7265
31
0.0
0
LINE
8
1
62
1
10
-11.6402
20
26.7265
30
0.0
11
-10.8355
21
25.9285
31
0.0
0
LINE
8
1
62
1
10
-10.8355
20
25.9285
30
0.0
11
-10.0324
21
25.1289
31
0.0
0
LINE
8
1
62
1
10
-10.0324
20
25.1289
30
0.0
11
-9.2345
21
24.3244
31
0.0
0
LINE
8
1
62
1
10
-9.2345
20
24.3244
30
0.0
11
-8.4227
21
23.5435
31
0.0
0
LINE
8
1
62
1
10
-8.4227
20
23.5435
30
0.0
11
-7.5719
21
22.8054
31
0.0
0
LINE
8
1
62
1
10
-7.5719
20
22.8054
30
0.0
11
-6.6489
21
22.0762
31
0.0
0
LINE
8
1
62
1
10
-6.6489
20
22.0762
30
0.0
11
-5.6834
21
21.4043
31
0.0
0
LINE
8
1
62
1
10
-5.6834
20
21.4043
30
0.0
11
-4.5177
21
20.6803
31
0.0
0
LINE
8
1
62
1
10
-4.5177
20
20.6803
30
0.0
11
-3.3087
21
20.0310
31
0.0
0
LINE
8
1
62
1
10
-3.3087
20
20.0310
30
0.0
11
-2.0615
21
19.4584
31
0.0
0
LINE
8
1
62
1
10
-2.0615
20
19.4584
30
0.0
11
-0.7830
21
18.9600
31
0.0
0
LINE
8
1
62
1
10
-0.7830
20
18.9600
30
0.0
11
1.0919
21
18.3890
31
0.0
0
LINE
8
1
62
1
10
1.0919
20
18.3890
30
0.0
11
3.0089
21
17.9803
31
0.0
0
LINE
8
1
62
1
10
3.0089
20
17.9803
30
0.0
11
4.0901
21
17.8816
31
0.0
0
LINE
8
1
62
1
10
4.0901
20
17.8816
30
0.0
11
5.2066
21
17.9455
31
0.0
0
LINE
8
1
62
1
10
5.2066
20
17.9455
30
0.0
11
6.2215
21
18.1477
31
0.0
0
LINE
8
1
62
1
10
6.2215
20
18.1477
30
0.0
11
7.2819
21
18.5103
31
0.0
0
LINE
8
1
62
1
10
7.2819
20
18.5103
30
0.0
11
8.2337
21
18.9816
31
0.0
0
LINE
8
1
62
1
10
8.2337
20
18.9816
30
0.0
11
9.2304
21
19.6455
31
0.0
0
LINE
8
1
62
1
10
9.2304
20
19.6455
30
0.0
11
10.1027
21
20.3869
31
0.0
0
LINE
8
1
62
1
10
10.1027
20
20.3869
30
0.0
11
11.0105
21
21.3684
31
0.0
0
LINE
8
1
62
1
10
11.0105
20
21.3684
30
0.0
11
11.7595
21
22.3922
31
0.0
0
LINE
8
1
62
1
10
11.7595
20
22.3922
30
0.0
11
12.5186
21
23.7220
31
0.0
0
LINE
8
1
62
1
10
12.5186
20
23.7220
30
0.0
11
13.1211
21
25.1160
31
0.0
0
LINE
8
1
62
1
10
13.1211
20
25.1160
30
0.0
11
13.6747
21
26.9665
31
0.0
0
LINE
8
1
62
1
10
13.6747
20
26.9665
30
0.0
11
13.6946
21
27.0450
31
0.0
0
LINE
8
1
62
1
10
13.6946
20
27.0450
30
0.0
11
13.7203
21
27.1216
31
0.0
0
LINE
8
1
62
1
10
13.7203
20
27.1216
30
0.0
11
13.9604
21
27.6786
31
0.0
0
LINE
8
1
62
1
10
13.9604
20
27.6786
30
0.0
11
14.2523
21
28.2104
31
0.0
0
LINE
8
1
62
1
10
14.2523
20
28.2104
30
0.0
11
14.5923
21
28.7128
31
0.0
0
LINE
8
1
62
1
10
14.5923
20
28.7128
30
0.0
11
14.9781
21
29.1808
31
0.0
0
LINE
8
1
62
1
10
14.9781
20
29.1808
30
0.0
11
15.1860
21
29.3659
31
0.0
0
LINE
8
1
62
1
10
15.1860
20
29.3659
30
0.0
11
15.4301
21
29.4998
31
0.0
0
LINE
8
1
62
1
10
15.4301
20
29.4998
30
0.0
11
15.6975
21
29.5796
31
0.0
0
LINE
8
1
62
1
10
15.6975
20
29.5796
30
0.0
11
15.9766
21
29.5936
31
0.0
0
LINE
8
1
62
1
10
15.9766
20
29.5936
30
0.0
11
16.2514
21
29.5430
31
0.0
0
LINE
8
1
62
1
10
16.2514
20
29.5430
30
0.0
11
16.5100
21
29.4375
31
0.0
0
ENDSEC
0
EOF
