 33.7425  -23.8784  -89.9994  
 33.7330  -23.5688  -85.3092  
 33.7087  -23.2617  -80.6164  
 33.6736  -22.9579  -75.9203  
 33.6241  -22.6602  -71.2182  
 33.5202  -22.2286  -64.1498  
 33.3861  -21.8207  -57.0577  
 33.1877  -21.3712  -48.5072  
 32.9526  -20.9750  -39.9034  
 32.6525  -20.6072  -30.2081  
 32.3211  -20.3308  -20.4215  
 31.2605  -19.6102  -20.8923  
 30.2034  -18.8477  -21.4050  
 29.1503  -18.0393  -21.9637  
 28.1016  -17.1798  -22.5735  
 27.0577  -16.2634  -23.2401  
 26.0193  -15.2836  -23.9701  
 25.0067  -14.1765  -27.9503  
 24.0318  -12.8589  -32.1410  
 23.0621  -11.2402  -36.7596  
 22.1508   -9.3565  -41.6434  
 21.1749   -6.8056  -47.6942  
 20.3098   -3.8641  -54.1358  
 19.5734   -0.5376  -60.9622  
 18.9837    3.1444  -68.1443  
 18.4273    8.9018  -78.9013  
 18.2375   15.0003  -89.9994  
 18.3488   18.3803   78.2358  
 18.6882   21.6755   66.4606  
 19.1857   24.4206   56.1318  
 19.8924   26.9709   45.7523  
 20.6912   28.9473   36.7810  
 21.7047   30.6716   27.6908  
 22.7525   31.8621   19.9698  
 24.0381   32.7622   12.0404  
 25.2923   33.2086    5.4690  
 26.8226   33.3246   -1.4137  
 28.3368   33.0826   -7.2953  
 30.2355   32.3908  -13.6764  
 30.3147   32.3595   -9.9076  
 30.3948   32.3382   -6.1488  
 31.0001   32.2704   -0.7256  
 31.6061   32.3078    4.5923  
 32.2077   32.4443    9.8111  
 32.8000   32.6734   14.9373  
 33.0589   32.8488   27.6244  
 33.2894   33.1166   40.2192  
 33.4807   33.4622   52.7361  
 33.6239   33.8686   65.1922  
 33.7125   34.3169   77.6061  
 33.7425   34.7859   89.9994  
