+0.0046
+0.0069
+0.0040
+0.0041
+0.0049
+0.0006
+0.0002
-0.0017
-0.0006
-0.0017
-0.0002
-0.0033
-0.0018
-0.0011
+0.0006
+0.0012
+0.0021
+0.0042
+0.0115
+0.0135
+0.0117
+0.0123
+0.0098
+0.0081
+0.0080
+0.0081
+0.0046
+0.0044
+0.0055
+0.0044
+0.0048
+0.0054
+0.0058
+0.0057
+0.0062
+0.0071
+0.0104
+0.0114
+0.0111
+0.0112
+0.0130
+0.0130
+0.0152
+0.0155
+0.0429
