0
SECTION
2
ENTITIES
0
LINE
8
1
62
1
10
57.4460
20
-21.3943
30
0.0
11
54.8202
21
-19.4587
31
0.0
0
LINE
8
1
62
1
10
54.8202
20
-19.4587
30
0.0
11
52.2730
21
-17.6802
31
0.0
0
LINE
8
1
62
1
10
52.2730
20
-17.6802
30
0.0
11
49.2251
21
-15.6873
31
0.0
0
LINE
8
1
62
1
10
49.2251
20
-15.6873
30
0.0
11
46.3881
21
-13.9945
31
0.0
0
LINE
8
1
62
1
10
46.3881
20
-13.9945
30
0.0
11
44.0946
21
-12.7565
31
0.0
0
LINE
8
1
62
1
10
44.0946
20
-12.7565
30
0.0
11
42.0619
21
-11.8057
31
0.0
0
LINE
8
1
62
1
10
42.0619
20
-11.8057
30
0.0
11
39.9681
21
-10.9865
31
0.0
0
LINE
8
1
62
1
10
39.9681
20
-10.9865
30
0.0
11
38.4547
21
-10.5458
31
0.0
0
LINE
8
1
62
1
10
38.4547
20
-10.5458
30
0.0
11
37.7058
21
-10.3909
31
0.0
0
LINE
8
1
62
1
10
37.7058
20
-10.3909
30
0.0
11
37.3489
21
-10.3546
31
0.0
0
LINE
8
1
62
1
10
37.3489
20
-10.3546
30
0.0
11
36.9479
21
-10.3161
31
0.0
0
LINE
8
1
62
1
10
36.9479
20
-10.3161
30
0.0
11
36.5457
21
-10.2116
31
0.0
0
LINE
8
1
62
1
10
36.5457
20
-10.2116
30
0.0
11
36.1868
21
-10.0346
31
0.0
0
LINE
8
1
62
1
10
36.1868
20
-10.0346
30
0.0
11
35.8797
21
-9.7874
31
0.0
0
LINE
8
1
62
1
10
35.8797
20
-9.7874
30
0.0
11
35.6994
21
-9.5726
31
0.0
0
LINE
8
1
62
1
10
35.6994
20
-9.5726
30
0.0
11
35.5623
21
-9.3319
31
0.0
0
LINE
8
1
62
1
10
35.5623
20
-9.3319
30
0.0
11
35.4198
21
-8.9145
31
0.0
0
LINE
8
1
62
1
10
35.4198
20
-8.9145
30
0.0
11
35.3671
21
-8.4779
31
0.0
0
LINE
8
1
62
1
10
35.3671
20
-8.4779
30
0.0
11
35.3969
21
-7.9867
31
0.0
0
LINE
8
1
62
1
10
35.3969
20
-7.9867
30
0.0
11
35.4890
21
-7.5035
31
0.0
0
LINE
8
1
62
1
10
35.4890
20
-7.5035
30
0.0
11
35.6262
21
-7.0514
31
0.0
0
LINE
8
1
62
1
10
35.6262
20
-7.0514
30
0.0
11
35.8172
21
-6.6180
31
0.0
0
LINE
8
1
62
1
10
35.8172
20
-6.6180
30
0.0
11
36.2927
21
-5.8341
31
0.0
0
LINE
8
1
62
1
10
36.2927
20
-5.8341
30
0.0
11
36.8927
21
-5.1141
31
0.0
0
LINE
8
1
62
1
10
36.8927
20
-5.1141
30
0.0
11
37.4644
21
-4.5701
31
0.0
0
LINE
8
1
62
1
10
37.4644
20
-4.5701
30
0.0
11
38.1351
21
-4.0424
31
0.0
0
LINE
8
1
62
1
10
38.1351
20
-4.0424
30
0.0
11
38.9581
21
-3.4907
31
0.0
0
LINE
8
1
62
1
10
38.9581
20
-3.4907
30
0.0
11
40.0603
21
-2.8182
31
0.0
0
LINE
8
1
62
1
10
40.0603
20
-2.8182
30
0.0
11
41.0252
21
-2.2517
31
0.0
0
LINE
8
1
62
1
10
41.0252
20
-2.2517
30
0.0
11
42.3307
21
-1.4798
31
0.0
0
LINE
8
1
62
1
10
42.3307
20
-1.4798
30
0.0
11
43.2834
21
-0.9071
31
0.0
0
LINE
8
1
62
1
10
43.2834
20
-0.9071
30
0.0
11
44.4219
21
-0.2002
31
0.0
0
LINE
8
1
62
1
10
44.4219
20
-0.2002
30
0.0
11
47.5435
21
2.0591
31
0.0
0
LINE
8
1
62
1
10
47.5435
20
2.0591
30
0.0
11
50.0179
21
4.2387
31
0.0
0
LINE
8
1
62
1
10
50.0179
20
4.2387
30
0.0
11
51.8388
21
6.1449
31
0.0
0
LINE
8
1
62
1
10
51.8388
20
6.1449
30
0.0
11
53.3419
21
8.0085
31
0.0
0
LINE
8
1
62
1
10
53.3419
20
8.0085
30
0.0
11
54.5764
21
9.8340
31
0.0
0
LINE
8
1
62
1
10
54.5764
20
9.8340
30
0.0
11
55.5712
21
11.6295
31
0.0
0
LINE
8
1
62
1
10
55.5712
20
11.6295
30
0.0
11
56.3524
21
13.3997
31
0.0
0
LINE
8
1
62
1
10
56.3524
20
13.3997
30
0.0
11
56.9191
21
15.1562
31
0.0
0
LINE
8
1
62
1
10
56.9191
20
15.1562
30
0.0
11
57.3493
21
17.2863
31
0.0
0
LINE
8
1
62
1
10
57.3493
20
17.2863
30
0.0
11
57.4333
21
19.4082
31
0.0
0
ENDSEC
0
EOF
