0
SECTION
2
ENTITIES
0
LINE
8
1
62
1
10
-20.6768
20
37.1292
30
0.0
11
-20.4549
21
37.2304
31
0.0
0
LINE
8
1
62
1
10
-20.4549
20
37.2304
30
0.0
11
-20.2251
21
37.3101
31
0.0
0
LINE
8
1
62
1
10
-20.2251
20
37.3101
30
0.0
11
-19.9927
21
37.3784
31
0.0
0
LINE
8
1
62
1
10
-19.9927
20
37.3784
30
0.0
11
-19.7551
21
37.4265
31
0.0
0
LINE
8
1
62
1
10
-19.7551
20
37.4265
30
0.0
11
-19.3935
21
37.4576
31
0.0
0
LINE
8
1
62
1
10
-19.3935
20
37.4576
30
0.0
11
-19.0308
21
37.4433
31
0.0
0
LINE
8
1
62
1
10
-19.0308
20
37.4433
30
0.0
11
-18.6022
21
37.3668
31
0.0
0
LINE
8
1
62
1
10
-18.6022
20
37.3668
30
0.0
11
-18.1915
21
37.2221
31
0.0
0
LINE
8
1
62
1
10
-18.1915
20
37.2221
30
0.0
11
-17.7856
21
37.0028
31
0.0
0
LINE
8
1
62
1
10
-17.7856
20
37.0028
30
0.0
11
-17.4242
21
36.7162
31
0.0
0
LINE
8
1
62
1
10
-17.4242
20
36.7162
30
0.0
11
-16.3592
21
35.7205
31
0.0
0
LINE
8
1
62
1
10
-16.3592
20
35.7205
30
0.0
11
-15.3051
21
34.7136
31
0.0
0
LINE
8
1
62
1
10
-15.3051
20
34.7136
30
0.0
11
-14.2574
21
33.6998
31
0.0
0
LINE
8
1
62
1
10
-14.2574
20
33.6998
30
0.0
11
-13.2178
21
32.6778
31
0.0
0
LINE
8
1
62
1
10
-13.2178
20
32.6778
30
0.0
11
-12.1858
21
31.6481
31
0.0
0
LINE
8
1
62
1
10
-12.1858
20
31.6481
30
0.0
11
-11.1604
21
30.6118
31
0.0
0
LINE
8
1
62
1
10
-11.1604
20
30.6118
30
0.0
11
-10.1823
21
29.6594
31
0.0
0
LINE
8
1
62
1
10
-10.1823
20
29.6594
30
0.0
11
-9.1575
21
28.7572
31
0.0
0
LINE
8
1
62
1
10
-9.1575
20
28.7572
30
0.0
11
-8.0086
21
27.8450
31
0.0
0
LINE
8
1
62
1
10
-8.0086
20
27.8450
30
0.0
11
-6.8147
21
26.9922
31
0.0
0
LINE
8
1
62
1
10
-6.8147
20
26.9922
30
0.0
11
-5.3673
21
26.0787
31
0.0
0
LINE
8
1
62
1
10
-5.3673
20
26.0787
30
0.0
11
-3.8665
21
25.2558
31
0.0
0
LINE
8
1
62
1
10
-3.8665
20
25.2558
30
0.0
11
-2.3192
21
24.5238
31
0.0
0
LINE
8
1
62
1
10
-2.3192
20
24.5238
30
0.0
11
-0.7294
21
23.8894
31
0.0
0
LINE
8
1
62
1
10
-0.7294
20
23.8894
30
0.0
11
1.6033
21
23.1580
31
0.0
0
LINE
8
1
62
1
10
1.6033
20
23.1580
30
0.0
11
3.9906
21
22.6311
31
0.0
0
LINE
8
1
62
1
10
3.9906
20
22.6311
30
0.0
11
5.3474
21
22.4983
31
0.0
0
LINE
8
1
62
1
10
5.3474
20
22.4983
30
0.0
11
6.7503
21
22.5626
31
0.0
0
LINE
8
1
62
1
10
6.7503
20
22.5626
30
0.0
11
7.8409
21
22.7613
31
0.0
0
LINE
8
1
62
1
10
7.8409
20
22.7613
30
0.0
11
8.9738
21
23.1006
31
0.0
0
LINE
8
1
62
1
10
8.9738
20
23.1006
30
0.0
11
10.0557
21
23.5635
31
0.0
0
LINE
8
1
62
1
10
10.0557
20
23.5635
30
0.0
11
11.1844
21
24.2076
31
0.0
0
LINE
8
1
62
1
10
11.1844
20
24.2076
30
0.0
11
12.1494
21
24.9001
31
0.0
0
LINE
8
1
62
1
10
12.1494
20
24.9001
30
0.0
11
13.1534
21
25.7882
31
0.0
0
LINE
8
1
62
1
10
13.1534
20
25.7882
30
0.0
11
14.0788
21
26.7920
31
0.0
0
LINE
8
1
62
1
10
14.0788
20
26.7920
30
0.0
11
15.0329
21
28.0668
31
0.0
0
LINE
8
1
62
1
10
15.0329
20
28.0668
30
0.0
11
15.7595
21
29.2661
31
0.0
0
LINE
8
1
62
1
10
15.7595
20
29.2661
30
0.0
11
16.4866
21
30.7538
31
0.0
0
LINE
8
1
62
1
10
16.4866
20
30.7538
30
0.0
11
17.0190
21
32.1422
31
0.0
0
LINE
8
1
62
1
10
17.0190
20
32.1422
30
0.0
11
17.5141
21
33.8583
31
0.0
0
LINE
8
1
62
1
10
17.5141
20
33.8583
30
0.0
11
17.5345
21
33.9294
31
0.0
0
LINE
8
1
62
1
10
17.5345
20
33.9294
30
0.0
11
17.5585
21
33.9992
31
0.0
0
LINE
8
1
62
1
10
17.5585
20
33.9992
30
0.0
11
17.7640
21
34.5232
31
0.0
0
LINE
8
1
62
1
10
17.7640
20
34.5232
30
0.0
11
18.0076
21
35.0307
31
0.0
0
LINE
8
1
62
1
10
18.0076
20
35.0307
30
0.0
11
18.2886
21
35.5184
31
0.0
0
LINE
8
1
62
1
10
18.2886
20
35.5184
30
0.0
11
18.6066
21
35.9828
31
0.0
0
LINE
8
1
62
1
10
18.6066
20
35.9828
30
0.0
11
18.9582
21
36.4224
31
0.0
0
LINE
8
1
62
1
10
18.9582
20
36.4224
30
0.0
11
19.3421
21
36.8340
31
0.0
0
LINE
8
1
62
1
10
19.3421
20
36.8340
30
0.0
11
19.5511
21
36.9982
31
0.0
0
LINE
8
1
62
1
10
19.5511
20
36.9982
30
0.0
11
19.7888
21
37.1162
31
0.0
0
LINE
8
1
62
1
10
19.7888
20
37.1162
30
0.0
11
20.0468
21
37.1787
31
0.0
0
LINE
8
1
62
1
10
20.0468
20
37.1787
30
0.0
11
20.3117
21
37.1852
31
0.0
0
LINE
8
1
62
1
10
20.3117
20
37.1852
30
0.0
11
20.4424
21
37.1636
31
0.0
0
LINE
8
1
62
1
10
20.4424
20
37.1636
30
0.0
11
20.5697
21
37.1279
31
0.0
0
LINE
8
1
62
1
10
20.5697
20
37.1279
30
0.0
11
20.6957
21
37.0879
31
0.0
0
LINE
8
1
62
1
10
20.6957
20
37.0879
30
0.0
11
20.8175
21
37.0343
31
0.0
0
ENDSEC
0
EOF
