1500101900002201712345600000#13040017390000728520170325084411987196612MM0000035121000
15001003000022017123456V60RL1A95FNM06030000223020170325084411987196612MM0000035122000
1500101300002201712345600000#13040017330000222020170325084411000000000MM0000999993900
15001011000022017123456     #13040017310000220020170325084411000000000MM0000999994900
15001012000022017123456V60RL1A95FNM06020000221020170325084411000000000MM0000004795500
15001009000022017123456     #13040017390000229020170425174819000000000MM0000999996900
15001008000022017123456     #13040017380000228020170425175848000000000MM0000001917800
15001014000022017123456V60RL1A95FNM06040004223220170426143458000123400MM0000004797900
15001005000022017123456     #13040017350000225020170426145719123456700MM0000001918000
15001004000022017123456     #13040017300005000020170428104717000023400MM0000001919000



             2017123456     #13040017360000226020170501180127000023400MM0000001919000
             2017123456     #13040017360000226020170508124222000023400MM0000999999900
             2017123456     #13040017360000226020170508124312000023400MM0000999999900
             2017123456     #13040017360000226020170508124312000023400MM0000999999900
             2017123456     #13040017360000226020170508124312000023400MM0000999999900
             2017123456     #13040017360000226020170508124312000023400MM0000999999900
             2017123456     #13040017360000226020170508124312000023400MM0000999999900
             2017123456     #13040017360000226020170508124312000023400MM0000999999900
             2017123456     #13040017360000226020170508124312000023400MM0000999999900
             2017123456     #13040017360000226020170508124312000023400MM0000999999900
             2017123456     #13040017360000226020170508124312000023400MM0000999999900
             2017123456     #13040017360000226020170508124312000023400MM0000999999900
             2017123456     #13040017360000226020170508124312000023400MM0000999999900
             2017123456     #13040017360000226020170508124312000023400MM0000999999900
             2017123456     #13040017360000226020170510085331000023400MM0000999999900
             2017123456     #13040017360000226020170510091850000023400MM0000999999900
             2017123456     #13040017360000226020170510092015000023400MM0000999999900
             2017123456     #13040017360000226020170510092015000023400MM0000999999900
