150600002000020181920180507402084#130400173     00000330020180508113530               20180531152536
150600003000020182320180604404751#130300176     00000330020180531160547
150600003000020182220180528404036#130300170     00000900020180530164347               20180531161712
150600003000020182120180524403457#130300174     00000900020180530164347               20180531162814
150600003000020182320180604403100#130800008     00000200020180530164347               20180531170106
150600003000020182320180604404751#130300176     00000330020180531170507
150600003000020182120180524403566#130300170     00000900020180531172908               20180531174438
150600003000020182120180524403566#130300170     00000280020180601103953               20180601105741
