150600003000020182220180528401853#130400173     00000330020180531172908                             
150600003000020182220180528402490#130300170     00000450020180531172908                             
150600003000020182020180514402806#130300174     00000450020180531172908                             
150600003000020182020180518402897#130300174     00000450020180531172908                             
150600003000020182220180528402922#130400172     00000330020180531172908                             
150600003000020182320180604403099#130800007     00000200020180531172908                             
150600003000020182320180604403100#130800008     00000200020180531172908                             
150600003000020182020180514403262#130300176     00000450020180531172908                             
150600003000020182320180604403336#130400171     00000660020180531172908                             
150600003000020182320180604403337#130400172     00000330020180531172908                             
150600003000020182120180524403457#130300174     00000900020180531172908                             
150600003000020182120180524403566#130300170     00000900020180531172908                             
150600003000020182220180528404036#130300170     00000900020180531172908                             
150600003000020182220180528404037#130300174     00000450020180531172908                             
150600003000020182320180604404038#130300174     00000450020180531172908                             
150600003000020182320180604404039#130300176     00000450020180531172908                             
150600003000020182320180604404134#130300170     00000450020180531172908                             
150600003000020182320180608404258#130300174     00000450020180531172908                             
150600003000020182320180604404657#130300170     00000450020180531172908                             
150600003000020182320180604404659#130400173     00000330020180531172908                             
150600003000020182220180528404660#130400190     00000330020180531172908                             
150600003000020182320180604404751#130300176     00000450020180531172908                             
