 +23.3200 -11.4560 +90             
 +23.3200 -10.4400 +90             
 +23.3200 -9.9140 +90             
 +23.3067 -9.7348 +81.5363        
 +23.2671 -9.5585 +73.1688        
 +23.1867 -9.3567 +63.4641        
 +23.0720 -9.1677 +54.0811        
 +22.9551 -9.0267 +46.6964        
 +22.8191 -8.8995 +39.5045        
 +22.3971 -8.5785 +35.01          
 +21.9453 -8.2880 +30.4853        
 +21.5079 -8.0517 +26.2538        
 +21.0508 -7.8475 +21.878         
 +20.6387 -7.6983 +17.8946        
 +20.2163 -7.5786 +13.7054        
 +18.8724 -7.1542 +21.5583        
 +17.5848 -6.5244 +30.7304        
 +16.4344 -5.7022 +40.4205        
 +15.3838 -4.6329 +50.4933        
 +14.4223 -3.2200 +60.7481        
 +13.6440 -1.5051 +70.1068        
 +12.9764 +1.0913 +80.6155        
 +12.7450 +3.9600 +89.9996        
 +12.8832 +5.5864 +80.1501        
 +13.3089 +7.1388 +68.7532        
 +14.0604 +8.5397 +54.1656        
 +15.2195 +9.6982 +35.3355        
 +16.4113 +10.3157 +19.729         
 +18.0393 +10.6493 +4.3256         
 +19.9760 +10.5802 +7.4782         
 +22.9161 +9.8868 +17.9423        
 +22.9347 +9.8814 +14.4908        
 +22.9535 +9.8772 +11.0697        
 +22.9739 +9.8738 +7.4379         
 +22.9941 +9.8719 +3.8297         
 +23.0173 +9.8712 +0.21           
 +23.0405 +9.8720 +4.2379         
 +23.0748 +9.8764 +10.2634        
 +23.1083 +9.8843 +16.3196        
 +23.1490 +9.8992 +23.8601        
 +23.1869 +9.9191 +31.5601        
 +23.2354 +9.9560 +43.1126        
 +23.2742 +10.0009 +55.2304        
 +23.3083 +10.0697 +72.2747        
 +23.3200 +10.1441 +89.9993        
