0
SECTION
2
ENTITIES
0
LINE
8
1
62
1
10
-23.2940
20
40.3322
30
0.0
11
-22.7081
21
40.6161
31
0.0
0
LINE
8
1
62
1
10
-22.7081
20
40.6161
30
0.0
11
-22.0921
21
40.8261
31
0.0
0
LINE
8
1
62
1
10
-22.0921
20
40.8261
30
0.0
11
-21.6472
21
40.9203
31
0.0
0
LINE
8
1
62
1
10
-21.6472
20
40.9203
30
0.0
11
-21.1960
21
40.9741
31
0.0
0
LINE
8
1
62
1
10
-21.1960
20
40.9741
30
0.0
11
-20.1484
21
40.9685
31
0.0
0
LINE
8
1
62
1
10
-20.1484
20
40.9685
30
0.0
11
-19.1153
21
40.7964
31
0.0
0
LINE
8
1
62
1
10
-19.1153
20
40.7964
30
0.0
11
-18.1546
21
40.4752
31
0.0
0
LINE
8
1
62
1
10
-18.1546
20
40.4752
30
0.0
11
-17.2464
21
40.0219
31
0.0
0
LINE
8
1
62
1
10
-17.2464
20
40.0219
30
0.0
11
-16.5535
21
39.5335
31
0.0
0
LINE
8
1
62
1
10
-16.5535
20
39.5335
30
0.0
11
-15.9271
21
38.9599
31
0.0
0
LINE
8
1
62
1
10
-15.9271
20
38.9599
30
0.0
11
-15.4908
21
38.4448
31
0.0
0
LINE
8
1
62
1
10
-15.4908
20
38.4448
30
0.0
11
-15.1053
21
37.8897
31
0.0
0
LINE
8
1
62
1
10
-15.1053
20
37.8897
30
0.0
11
-13.6913
21
35.7237
31
0.0
0
LINE
8
1
62
1
10
-13.6913
20
35.7237
30
0.0
11
-12.0918
21
33.6890
31
0.0
0
LINE
8
1
62
1
10
-12.0918
20
33.6890
30
0.0
11
-10.5014
21
31.9805
31
0.0
0
LINE
8
1
62
1
10
-10.5014
20
31.9805
30
0.0
11
-8.7729
21
30.4113
31
0.0
0
LINE
8
1
62
1
10
-8.7729
20
30.4113
30
0.0
11
-6.9274
21
28.9813
31
0.0
0
LINE
8
1
62
1
10
-6.9274
20
28.9813
30
0.0
11
-4.9748
21
27.7016
31
0.0
0
LINE
8
1
62
1
10
-4.9748
20
27.7016
30
0.0
11
-2.9278
21
26.5793
31
0.0
0
LINE
8
1
62
1
10
-2.9278
20
26.5793
30
0.0
11
-0.7994
21
25.6200
31
0.0
0
LINE
8
1
62
1
10
-0.7994
20
25.6200
30
0.0
11
1.8940
21
24.6790
31
0.0
0
LINE
8
1
62
1
10
1.8940
20
24.6790
30
0.0
11
4.6655
21
24.0017
31
0.0
0
LINE
8
1
62
1
10
4.6655
20
24.0017
30
0.0
11
6.0707
21
23.8300
31
0.0
0
LINE
8
1
62
1
10
6.0707
20
23.8300
30
0.0
11
7.5242
21
23.8598
31
0.0
0
LINE
8
1
62
1
10
7.5242
20
23.8598
30
0.0
11
8.8467
21
24.0631
31
0.0
0
LINE
8
1
62
1
10
8.8467
20
24.0631
30
0.0
11
10.2277
21
24.4587
31
0.0
0
LINE
8
1
62
1
10
10.2277
20
24.4587
30
0.0
11
11.6787
21
25.0911
31
0.0
0
LINE
8
1
62
1
10
11.6787
20
25.0911
30
0.0
11
13.2110
21
26.0293
31
0.0
0
LINE
8
1
62
1
10
13.2110
20
26.0293
30
0.0
11
14.5962
21
27.1612
31
0.0
0
LINE
8
1
62
1
10
14.5962
20
27.1612
30
0.0
11
16.0530
21
28.7150
31
0.0
0
LINE
8
1
62
1
10
16.0530
20
28.7150
30
0.0
11
17.3124
21
30.4781
31
0.0
0
LINE
8
1
62
1
10
17.3124
20
30.4781
30
0.0
11
18.5784
21
32.8946
31
0.0
0
LINE
8
1
62
1
10
18.5784
20
32.8946
30
0.0
11
19.5040
21
35.4461
31
0.0
0
LINE
8
1
62
1
10
19.5040
20
35.4461
30
0.0
11
20.2599
21
39.0452
31
0.0
0
LINE
8
1
62
1
10
20.2599
20
39.0452
30
0.0
11
20.2713
21
39.1201
31
0.0
0
LINE
8
1
62
1
10
20.2713
20
39.1201
30
0.0
11
20.2836
21
39.1946
31
0.0
0
LINE
8
1
62
1
10
20.2836
20
39.1946
30
0.0
11
20.3072
21
39.2980
31
0.0
0
LINE
8
1
62
1
10
20.3072
20
39.2980
30
0.0
11
20.3375
21
39.4002
31
0.0
0
LINE
8
1
62
1
10
20.3375
20
39.4002
30
0.0
11
20.3707
21
39.4929
31
0.0
0
LINE
8
1
62
1
10
20.3707
20
39.4929
30
0.0
11
20.4094
21
39.5836
31
0.0
0
LINE
8
1
62
1
10
20.4094
20
39.5836
30
0.0
11
20.4938
21
39.7432
31
0.0
0
LINE
8
1
62
1
10
20.4938
20
39.7432
30
0.0
11
20.5909
21
39.8953
31
0.0
0
LINE
8
1
62
1
10
20.5909
20
39.8953
30
0.0
11
20.7390
21
40.0706
31
0.0
0
LINE
8
1
62
1
10
20.7390
20
40.0706
30
0.0
11
20.9043
21
40.2295
31
0.0
0
LINE
8
1
62
1
10
20.9043
20
40.2295
30
0.0
11
21.2326
21
40.4426
31
0.0
0
LINE
8
1
62
1
10
21.2326
20
40.4426
30
0.0
11
21.5943
21
40.5905
31
0.0
0
LINE
8
1
62
1
10
21.5943
20
40.5905
30
0.0
11
21.9789
21
40.6572
31
0.0
0
LINE
8
1
62
1
10
21.9789
20
40.6572
30
0.0
11
22.3695
21
40.6514
31
0.0
0
LINE
8
1
62
1
10
22.3695
20
40.6514
30
0.0
11
22.8454
21
40.5532
31
0.0
0
ENDSEC
0
EOF
