+0.0100 +0.0100
+0.0100 +0.0100
+0.0100 +0.0100
+0.0100 +0.0100
+0.0100 +0.0100
+0.0100 +0.0100
+0.0100 +0.0100
+0.0100 +0.0100
+0.0100 +0.0100
+0.0100 +0.0100
+0.0100 +0.0100
+0.0100 +0.0100
+0.0100 +0.0100
+0.0100 +0.0100
+0.0100 +0.0100
+0.0100 +0.0100
+0.0100 +0.0100
+0.0100 +0.0100
+0.0100 +0.0100
+0.0100 +0.0100
+0.0100 +0.0100
+0.0100 +0.0100
+0.0100 +0.0100
+0.0100 +0.0100
+0.0100 +0.0100
+0.0100 +0.0100
+0.0100 +0.0100
+0.0100 +0.0100
+0.0100 +0.0100
+0.0100 +0.0100
+0.0100 +0.0100
+0.0100 +0.0100
+0.0100 +0.0100
+0.0100 +0.0100
+0.0100 +0.0100
+0.0100 +0.0100
+0.0100 +0.0100
+0.0100 +0.0100
+0.0100 +0.0100
+0.0100 +0.0100
+0.0100 +0.0100
+0.0100 +0.0100
+0.0100 +0.0100
