35.7137   -17.7247   0
34.2438   -16.4383   0
32.8600   -15.2626   0
31.5544   -14.1863   0
30.3537   -13.2318   0
28.1399   -11.5783   0
26.1838   -10.2737   0
24.5516   -9.3216   0
23.2837   -8.7048   0
22.3898   -8.3575   0
21.8259   -8.1909   0
21.5004   -8.1201   0
21.3068   -8.0880   0
20.9893   -8.0015   0
20.7222   -7.8496   0
20.5181   -7.6563   0
20.3651   -7.4184   0
20.2688   -7.1497   0
20.2306   -6.8646   0
20.2372   -6.4971   0
20.2337   -6.1298   0
20.2763   -5.7280   0
20.3914   -5.3446   0
20.5183   -5.0864   0
20.6811   -4.8538   0
20.8817   -4.6343   0
21.1108   -4.4510   0
21.3784   -4.2935   0
21.6742   -4.1617   0
22.6211   -3.7125   0
23.7215   -3.0564   0
25.2472   -1.9550   0
26.7806   -0.6705   0
28.7065   1.1681   0
30.5270   3.1232   0
31.8447   4.7397   0
32.9229   6.3005   0
33.7329   7.6868   0
34.3860   9.0458   0
34.9147   10.4126   0
35.3069   11.7613   0
35.4975   12.6412   0
35.6317   13.5175   0
35.7104   14.3912   0
35.7190   15.2633   0
