-0.014
-0.003
+0.002
+0.004
+0.006
+0.005
+0.008
+0.006
+0.006
+0.004
+0.003
+0.001
-0.001
-0.003
-0.003
-0.001
-0.000
+0.001
+0.007
+0.000
+0.004
+0.000
-0.001
-0.000
-0.003
-0.001
-0.002
-0.004
-0.002
+0.005
+0.006
+0.006
+0.006
+0.006
+0.006
+0.006
+0.006
+0.003
+0.006
+0.006
+0.007
+0.005
+0.004
+0.006
+0.024
