 42.4875  -24.1129  -89.9994  
 42.4751  -23.7853  -85.3276  
 42.4430  -23.4605  -80.6537  
 42.3938  -23.1396  -75.9756  
 42.3273  -22.8236  -71.2916  
 42.1912  -22.3653  -64.2496  
 42.0146  -21.9312  -57.1827  
 41.7520  -21.4523  -48.6605  
 41.4390  -21.0306  -40.0823  
 41.0617  -20.6567  -30.9274  
 40.6461  -20.3686  -21.6867  
 39.2929  -19.5906  -22.0250  
 37.9432  -18.7728  -22.4031  
 36.5973  -17.9109  -22.8253  
 35.2558  -17.0001  -23.2964  
 33.9193  -16.0348  -23.8221  
 32.5886  -15.0083  -24.4088  
 31.3658  -13.9232  -28.2853  
 30.1879  -12.6408  -32.3591  
 28.9817  -11.0253  -36.9746  
 27.8486   -9.1479  -41.8520  
 26.6359   -6.6091  -47.8907  
 25.5613   -3.6858  -54.3140  
 24.6471   -0.3845  -61.1154  
 23.9154    3.2655  -68.2653  
 23.2253    8.9662  -78.9658  
 22.9900   15.0003  -89.9994  
 23.1296   18.3676   78.2538  
 23.5553   21.6512   66.4958  
 24.0746   24.0069   57.6569  
 24.7832   26.2278   48.7837  
 25.6202   28.1082   40.5979  
 26.6659   29.7995   32.3308  
 27.7061   31.0085   25.4736  
 28.9494   32.0217   18.4915  
 30.2662   32.7178   12.1332  
 31.8395   33.1676    5.5667  
 33.2396   33.2958    0.4460  
 34.8935   33.1855   -4.9175  
 36.3691   32.8907   -9.1953  
 38.1184   32.3426  -13.7603  
 38.1911   32.3188  -10.8752  
 38.2645   32.3006   -7.9957  
 38.8249   32.2159   -3.6006  
 39.3881   32.1953    0.7305  
 39.9507   32.2360    5.0002  
 40.5098   32.3352    9.2114  
 41.0622   32.4901   13.3669  
 41.6053   32.6977   17.4698  
 41.8500   32.8444   29.6853  
 42.0657   33.0589   41.8345  
 42.2430   33.3295   53.9274  
 42.3745   33.6428   65.9766  
 42.4204   33.8113   71.9891  
 42.4548   33.9847   77.9957  
 42.4780   34.1613   83.9987  
 42.4875   34.3409   89.9994  
