 +35.7033 -17.7363 +41.8773        
 +34.2414 -16.4409 +40.9681        
 +32.8617 -15.2606 +40.0153        
 +31.5574 -14.1827 +39.0055        
 +30.3576 -13.2268 +37.9558        
 +28.1432 -11.5736 +35.2746        
 +26.1889 -10.2656 +31.9851        
 +24.5552 -9.3150 +27.9955        
 +23.2865 -8.6983 +23.3626        
 +22.3915 -8.3523 +18.4059        
 +21.8268 -8.1871 +13.7097        
 +21.5007 -8.1184 +9.898          
 +21.3067 -8.0890 +7.3267         
 +20.9878 -8.0051 +22.4032        
 +20.7202 -7.8522 +37.1453        
 +20.5174 -7.6569 +50.6567        
 +20.3647 -7.4186 +63.9869        
 +20.2697 -7.1495 +77.0763        
 +20.2375 -6.8646 +89.9997        
 +20.2375 -6.4972 +90             
 +20.2375 -6.1298 +90             
 +20.2764 -5.7280 +78.9357        
 +20.3908 -5.3444 +67.7953        
 +20.5182 -5.0863 +59.6481        
 +20.6788 -4.8518 +51.521         
 +20.8808 -4.6332 +43.0318        
 +21.1092 -4.4487 +34.9006        
 +21.3762 -4.2892 +27.0068        
 +21.6733 -4.1593 +20.7006        
 +22.6244 -3.7187 +27.9073        
 +23.7252 -3.0621 +33.0799        
 +25.2518 -1.9610 +38.0189        
 +26.7855 -0.6760 +41.7204        
 +28.7116 +1.1631 +45.4759        
 +30.5317 +3.1190 +48.5644        
 +31.8499 +4.7359 +53.1244        
 +32.9281 +6.2972 +57.6984        
 +33.7355 +7.6854 +62.0075        
 +34.3917 +9.0433 +66.4882        
 +34.9207 +10.4106 +71.2779        
 +35.3142 +11.7595 +76.2583        
 +35.5025 +12.6403 +79.628         
 +35.6361 +13.5170 +83.0533        
 +35.7160 +14.3909 +86.5173        
 +35.7425 +15.2633 +89.9968        
