--------
ROTORE: FS26F
 0 
 1 
 2 
 3 
 4 
 5 
--------
FIANCO 1
--------
00001 +0.1317 +0.0668 +0.1476 -0.4906 +0.8714 
00002 +0.1320 +0.0660 +0.1476 -0.4128 +0.9108 
00003 +0.1323 +0.0653 +0.1475 -0.3318 +0.9433 
00004 +0.1325 +0.0646 +0.1474 -0.2483 +0.9687 
00005 +0.1327 +0.0640 +0.1473 -0.1630 +0.9866 
00006 +0.1328 +0.0629 +0.1469 -0.0328 +0.9995 
00007 +0.1328 +0.0617 +0.1465 +0.0980 +0.9952 
00008 +0.1326 +0.0605 +0.1458 +0.2524 +0.9676 
00009 +0.1322 +0.0591 +0.1449 +0.4007 +0.9162 
00010 +0.1315 +0.0580 +0.1438 +0.5546 +0.8321 
00011 +0.1305 +0.0570 +0.1424 +0.6915 +0.7224 
00012 +0.1275 +0.0539 +0.1384 +0.6946 +0.7194 
00013 +0.1246 +0.0506 +0.1345 +0.6978 +0.7163 
00014 +0.1218 +0.0474 +0.1307 +0.7009 +0.7133 
00015 +0.1190 +0.0441 +0.1269 +0.7040 +0.7102 
00016 +0.1161 +0.0409 +0.1231 +0.7071 +0.7072 
00017 +0.1132 +0.0375 +0.1192 +0.7101 +0.7041 
00018 +0.1103 +0.0343 +0.1155 +0.6740 +0.7388 
00019 +0.1074 +0.0310 +0.1118 +0.6361 +0.7716 
00020 +0.1046 +0.0271 +0.1081 +0.5948 +0.8039 
00021 +0.1020 +0.0233 +0.1046 +0.5519 +0.8339 
00022 +0.0991 +0.0185 +0.1009 +0.5000 +0.8660 
00023 +0.0965 +0.0136 +0.0975 +0.4462 +0.8949 
00024 +0.0942 +0.0084 +0.0946 +0.3907 +0.9205 
00025 +0.0922 +0.0030 +0.0922 +0.3338 +0.9426 
00026 +0.0898 -0.0049 -0.0899 +0.2504 +0.9681 
00027 +0.0881 -0.0129 -0.0890 +0.1651 +0.9863 
--------
FIANCO 2
--------
00028 +0.0876 -0.0174 +0.1476 +0.0195 +0.9998 
00029 +0.0878 -0.0221 +0.1476 -0.1282 +0.9918 
00030 +0.0887 -0.0263 +0.1475 -0.2579 +0.9662 
00031 +0.0902 -0.0308 +0.1474 -0.3871 +0.9220 
00032 +0.0922 -0.0346 +0.1473 -0.4965 +0.8680 
00033 +0.0951 -0.0385 +0.1469 -0.6037 +0.7972 
00034 +0.0982 -0.0417 +0.1465 -0.6905 +0.7234 
00035 +0.1024 -0.0449 +0.1458 -0.7738 +0.6334 
00036 +0.1067 -0.0472 +0.1449 -0.8370 +0.5472 
00037 +0.1122 -0.0489 +0.1438 -0.8956 +0.4448 
00038 +0.1179 -0.0497 +0.1424 -0.9380 +0.3467 
00039 +0.1251 -0.0492 +0.1384 -0.9735 +0.2286 
00040 +0.1248 -0.0514 +0.1345 -0.9565 +0.2916 
00041 +0.1244 -0.0532 +0.1307 -0.9355 +0.3533 
00042 +0.1255 -0.0562 +0.1269 -0.8985 +0.4391 
00043 +0.1268 -0.0585 +0.1231 -0.8536 +0.5210 
00044 +0.1287 -0.0598 +0.1192 -0.8012 +0.5984 
00045 +0.1308 -0.0610 +0.1155 -0.7419 +0.6706 
00046 +0.1316 -0.0618 +0.1118 -0.5740 +0.8189 
00047 +0.1320 -0.0628 +0.1081 -0.3773 +0.9261 
00048 +0.1322 -0.0638 +0.1046 -0.1616 +0.9869 
00049 +0.1323 -0.0649 +0.1009 +0.0621 +0.9981 
00050 +0.1320 -0.0660 +0.0975 +0.2827 +0.9592 
00051 +0.1316 -0.0671 +0.0946 +0.4892 +0.8722 
