-16.5489   29.3955   0
-16.3878   29.4800   0
-16.2196   29.5503   0
-16.0459   29.6048   0
-15.8685   29.6443   0
-15.5966   29.6724   0
-15.3231   29.6635   0
-14.9995   29.6077   0
-14.6895   29.4992   0
-14.3679   29.3224   0
-14.0800   29.0946   0
-13.2631   28.3089   0
-12.4503   27.5189   0
-11.6432   26.7234   0
-10.8340   25.9300   0
-10.0298   25.1315   0
-9.2333   24.3256   0
-8.4210   23.5454   0
-7.5688   22.8091   0
-6.6410   22.0869   0
-5.6782   21.4121   0
-4.5122   20.6898   0
-3.3033   20.0419   0
-2.0588   19.4648   0
-0.7798   18.9692   0
1.0935   18.3953   0
3.0102   17.9882   0
4.0902   17.8888   0
5.2062   17.9487   0
6.2210   18.1496   0
7.2799   18.5150   0
8.2313   18.9858   0
9.2296   19.6464   0
10.1005   20.3892   0
11.0077   21.3707   0
11.7569   22.3939   0
12.5122   23.7251   0
13.1226   25.1155   0
13.6742   26.9667   0
13.6968   27.0443   0
13.7228   27.1207   0
13.9645   27.6766   0
14.2536   28.2096   0
14.5934   28.7119   0
14.9779   29.1809   0
15.1884   29.3626   0
15.4320   29.4953   0
15.6976   29.5785   0
15.9760   29.5850   0
16.2507   29.5407   0
16.5079   29.4337   0
