0
SECTION
2
ENTITIES
0
LINE
8
1
62
1
10
44.9362
20
-21.9124
30
0.0
11
43.2479
21
-20.4078
31
0.0
0
LINE
8
1
62
1
10
43.2479
20
-20.4078
30
0.0
11
41.6467
21
-19.0207
31
0.0
0
LINE
8
1
62
1
10
41.6467
20
-19.0207
30
0.0
11
40.6043
21
-18.1381
31
0.0
0
LINE
8
1
62
1
10
40.6043
20
-18.1381
30
0.0
11
39.6037
21
-17.3218
31
0.0
0
LINE
8
1
62
1
10
39.6037
20
-17.3218
30
0.0
11
37.0423
21
-15.3067
31
0.0
0
LINE
8
1
62
1
10
37.0423
20
-15.3067
30
0.0
11
34.6997
21
-13.6108
31
0.0
0
LINE
8
1
62
1
10
34.6997
20
-13.6108
30
0.0
11
32.5005
21
-12.1767
31
0.0
0
LINE
8
1
62
1
10
32.5005
20
-12.1767
30
0.0
11
30.6666
21
-11.1423
31
0.0
0
LINE
8
1
62
1
10
30.6666
20
-11.1423
30
0.0
11
28.5916
21
-10.1879
31
0.0
0
LINE
8
1
62
1
10
28.5916
20
-10.1879
30
0.0
11
27.4754
21
-9.8325
31
0.0
0
LINE
8
1
62
1
10
27.4754
20
-9.8325
30
0.0
11
26.9583
21
-9.7232
31
0.0
0
LINE
8
1
62
1
10
26.9583
20
-9.7232
30
0.0
11
26.6597
21
-9.6756
31
0.0
0
LINE
8
1
62
1
10
26.6597
20
-9.6756
30
0.0
11
26.1752
21
-9.5340
31
0.0
0
LINE
8
1
62
1
10
26.1752
20
-9.5340
30
0.0
11
25.8542
21
-9.3030
31
0.0
0
LINE
8
1
62
1
10
25.8542
20
-9.3030
30
0.0
11
25.6876
21
-9.0995
31
0.0
0
LINE
8
1
62
1
10
25.6876
20
-9.0995
30
0.0
11
25.5753
21
-8.8623
31
0.0
0
LINE
8
1
62
1
10
25.5753
20
-8.8623
30
0.0
11
25.5153
21
-8.6320
31
0.0
0
LINE
8
1
62
1
10
25.5153
20
-8.6320
30
0.0
11
25.4906
21
-8.3949
31
0.0
0
LINE
8
1
62
1
10
25.4906
20
-8.3949
30
0.0
11
25.4830
21
-7.8536
31
0.0
0
LINE
8
1
62
1
10
25.4830
20
-7.8536
30
0.0
11
25.4818
21
-7.3124
31
0.0
0
LINE
8
1
62
1
10
25.4818
20
-7.3124
30
0.0
11
25.5389
21
-6.7733
31
0.0
0
LINE
8
1
62
1
10
25.5389
20
-6.7733
30
0.0
11
25.6920
21
-6.2592
31
0.0
0
LINE
8
1
62
1
10
25.6920
20
-6.2592
30
0.0
11
25.8591
21
-5.9123
31
0.0
0
LINE
8
1
62
1
10
25.8591
20
-5.9123
30
0.0
11
26.0715
21
-5.5976
31
0.0
0
LINE
8
1
62
1
10
26.0715
20
-5.5976
30
0.0
11
26.3378
21
-5.3024
31
0.0
0
LINE
8
1
62
1
10
26.3378
20
-5.3024
30
0.0
11
26.6413
21
-5.0536
31
0.0
0
LINE
8
1
62
1
10
26.6413
20
-5.0536
30
0.0
11
26.9759
21
-4.8475
31
0.0
0
LINE
8
1
62
1
10
26.9759
20
-4.8475
30
0.0
11
27.3486
21
-4.6653
31
0.0
0
LINE
8
1
62
1
10
27.3486
20
-4.6653
30
0.0
11
28.5975
21
-4.0289
31
0.0
0
LINE
8
1
62
1
10
28.5975
20
-4.0289
30
0.0
11
30.0404
21
-3.1237
31
0.0
0
LINE
8
1
62
1
10
30.0404
20
-3.1237
30
0.0
11
32.2788
21
-1.4103
31
0.0
0
LINE
8
1
62
1
10
32.2788
20
-1.4103
30
0.0
11
34.5270
21
0.6049
31
0.0
0
LINE
8
1
62
1
10
34.5270
20
0.6049
30
0.0
11
36.6196
21
2.7088
31
0.0
0
LINE
8
1
62
1
10
36.6196
20
2.7088
30
0.0
11
38.6162
21
4.9277
31
0.0
0
LINE
8
1
62
1
10
38.6162
20
4.9277
30
0.0
11
40.0314
21
6.6840
31
0.0
0
LINE
8
1
62
1
10
40.0314
20
6.6840
30
0.0
11
41.2221
21
8.3874
31
0.0
0
LINE
8
1
62
1
10
41.2221
20
8.3874
30
0.0
11
42.2084
21
10.0295
31
0.0
0
LINE
8
1
62
1
10
42.2084
20
10.0295
30
0.0
11
43.0243
21
11.6371
31
0.0
0
LINE
8
1
62
1
10
43.0243
20
11.6371
30
0.0
11
43.6881
21
13.2154
31
0.0
0
LINE
8
1
62
1
10
43.6881
20
13.2154
30
0.0
11
44.2081
21
14.7718
31
0.0
0
LINE
8
1
62
1
10
44.2081
20
14.7718
30
0.0
11
44.5716
21
16.2094
31
0.0
0
LINE
8
1
62
1
10
44.5716
20
16.2094
30
0.0
11
44.8153
21
17.6378
31
0.0
0
LINE
8
1
62
1
10
44.8153
20
17.6378
30
0.0
11
44.9344
21
18.8571
31
0.0
0
LINE
8
1
62
1
10
44.9344
20
18.8571
30
0.0
11
44.9417
21
20.0732
31
0.0
0
ENDSEC
0
EOF
