+0.0014
+0.0024
+0.0009
-0.0003
+0.0001
+0.0004
+0.0009
-0.0002
-0.0018
+0.0000
+0.0000
+0.0000
+0.0000
+0.0000
+0.0000
+0.0016
+0.0120
+0.0036
+0.0018
+0.0005
+0.0018
+0.0009
+0.0025
+0.0017
+0.0015
+0.0025
+0.0010
+0.0013
+0.0024
+0.0015
+0.0003
+0.0019
+0.0013
+0.0032
+0.0053
+0.0033
+0.0421
