29.9217   -12.0013   0
28.3516   -10.7984   0
26.8599   -9.7466   0
25.2773   -8.7113   0
23.8574   -7.8686   0
22.6378   -7.2223   0
21.6499   -6.7648   0
20.3318   -6.2784   0
19.8719   -6.1504   0
0.0000   0.0000   0
0.0000   0.0000   0
0.0000   0.0000   0
0.0000   0.0000   0
0.0000   0.0000   0
0.0000   0.0000   0
19.4184   -5.0449   0
19.4080   -4.2739   0
19.4544   -3.9702   0
19.5686   -3.6804   0
19.7254   -3.4472   0
19.9356   -3.2294   0
20.4911   -2.7746   0
21.1882   -2.2449   0
21.8240   -1.7814   0
22.6248   -1.1974   0
23.4850   -0.5572   0
24.5413   0.2504   0
25.8125   1.3388   0
26.8472   2.3948   0
27.5739   3.2599   0
28.1880   4.1081   0
28.8120   5.1512   0
29.2965   6.1770   0
29.6472   7.1920   0
29.8731   8.1985   0
29.9626   8.8997   0
29.9529   9.6000   0
