44.9396   -21.9086   0
43.2512   -20.4041   0
41.6523   -19.0141   0
40.6083   -18.1333   0
39.6126   -17.3108   0
37.0531   -15.2924   0
34.7088   -13.5976   0
32.5096   -12.1616   0
30.6767   -11.1229   0
28.5950   -10.1789   0
27.4760   -9.8301   0
26.9587   -9.7203   0
26.6587   -9.6834   0
26.1747   -9.5350   0
25.8638   -9.2936   0
25.7028   -9.0898   0
25.5842   -8.8589   0
25.5176   -8.6316   0
25.4905   -8.3949   0
25.4986   -7.8536   0
25.4986   -7.3124   0
25.5452   -6.7746   0
25.6952   -6.2605   0
25.8617   -5.9138   0
26.0742   -5.5997   0
26.3422   -5.3070   0
26.6429   -5.0559   0
26.9756   -4.8470   0
27.3497   -4.6680   0
28.6079   -4.0474   0
30.0490   -3.1363   0
32.2890   -1.4225   0
34.5380   0.5934   0
36.6272   2.7016   0
38.6229   4.9219   0
40.0369   6.6798   0
41.2246   8.3858   0
42.2098   10.0287   0
43.0246   11.6370   0
43.6852   13.2164   0
44.2050   14.7727   0
44.5695   16.2099   0
44.8193   17.6373   0
44.9420   18.8566   0
44.9529   20.0732   0
