+0.0155
+0.0161
+0.0169
+0.0125
+0.0056
+0.0015
+0.0046
+0.0043
+0.0036
+0.0046
+0.0039
+0.0053
+0.0046
+0.0056
+0.0023
+0.0013
+0.0021
+0.0013
+0.0027
-0.0016
+0.0000
-0.0024
-0.0011
-0.0025
-0.0044
-0.0053
-0.0058
-0.0049
-0.0029
-0.0016
+0.0005
+0.0005
-0.0009
-0.0023
-0.0034
-0.0034
-0.0035
-0.0031
-0.0036
-0.0032
-0.0009
-0.0040
-0.0157
-0.0098
+0.0077
-0.0011
-0.0024
+0.0000
