 +57.4481 -20.1733 +36.9795        
 +54.8235 -18.1786 +35.6494        
 +52.2772 -16.4561 +34.1622        
 +49.2288 -14.1798 +32.0098        
 +46.3923 -12.4854 +29.4422        
 +44.0976 -11.3623 +26.7187        
 +42.0655 -10.8058 +23.4968        
 +39.9705 -9.6475 +18.6909        
 +38.4561 -9.5483 +13.0931        
 +37.7056 -9.4003 +8.3796         
 +37.3492 -9.3591 +4.2885         
 +36.9474 -9.3279 +8.6699         
 +36.5442 -9.2242 +20.3262        
 +36.1846 -9.0463 +32.4429        
 +35.8766 -8.7987 +45.3259        
 +35.0000 -8.5831 +55.5507        
 +35.0000 -8.3424 +65.3382        
 +35.0000 -7.9239 +77.5586        
 +35.0000 -7.4863 +89.9986        
 +35.0000 -6.9950 +83.1435        
 +35.0000 -6.5110 +76.3518        
 +35.0000 -6.0589 +69.9535        
 +35.0000 -5.6247 +63.7277        
 +36.2899 -4.8404 +54.4001        
 +36.8892 -4.1190 +46.3487        
 +37.4628 -3.5766 +40.648         
 +38.1342 -3.0493 +35.9013        
 +38.9560 -2.4957 +32.4014        
 +40.0598 -1.8257 +30.5037        
 +41.0257 -1.2608 +30.2837        
 +42.3321 -0.4905 +30.8631        
 +43.2831 +0.0850 +31.5248        
 +44.4201 +0.7943 +32.391         
 +47.5521 +3.0401 +38.7857        
 +50.0245 +5.2236 +44.1576        
 +51.8414 +7.1344 +48.8024        
 +53.3445 +8.9982 +53.523         
 +54.5790 +10.8240 +58.4511        
 +55.5744 +12.6196 +63.6578        
 +56.3501 +14.3921 +69.1695        
 +56.9195 +16.1477 +74.9733        
 +57.3477 +18.2782 +82.3865        
 +57.4895 +20.3999 +89.9982        
