 35.7033  -44.9718  -56.7221  
 34.2413  -41.4388  -54.7553  
 32.8616  -38.2194  -52.7117  
 31.5575  -35.2802  -50.5820  
 30.3575  -32.6729  -48.4215  
 28.1432  -28.1642  -43.4591  
 26.1890  -24.5971  -37.9009  
 24.5552  -22.0044  -31.8551  
 23.2865  -20.3226  -25.5853  
 22.3915  -19.3787  -19.5284  
 21.8268  -18.9285  -14.2224  
 21.5007  -18.7412  -10.1252  
 21.3067  -18.6611   -7.4296  
 20.9878  -18.4320  -22.3834  
 20.7202  -18.0149  -36.7650  
 20.5174  -17.4824  -49.9908  
 20.3647  -16.8325  -63.2774  
 20.2697  -16.0987  -76.6219  
 20.2375  -15.3214  -89.9997  
 20.2375  -14.3194   90.0000  
 20.2375  -13.3176   90.0000  
 20.2764  -12.2219   78.5466  
 20.3908  -11.1756   67.1907  
 20.5182  -10.4717   59.0548  
 20.6788   -9.8323   51.0788  
 20.8808   -9.2360   42.8576  
 21.1092   -8.7327   35.0293  
 21.3762   -8.2976   27.4111  
 21.6733   -7.9434   21.2978  
 22.6243   -6.7421   29.6994  
 23.7253   -4.9510   36.3392  
 25.2518   -1.9482   43.2203  
 26.7855    1.5565   48.6628  
 28.7117    6.5725   54.2593  
 30.5317   11.9064   58.7259  
 31.8499   16.3162   63.6734  
 32.9281   20.5742   68.0329  
 33.7355   24.3602   71.6848  
 34.3917   28.0636   75.1172  
 34.9207   31.7927   78.4759  
 35.3142   35.4712   81.7227  
 35.5025   37.8735   83.8186  
 35.6361   40.2646   85.8916  
 35.7160   42.6482   87.9498  
 35.7425   45.0270   89.9981  
