--------
ROTORE: FS14M
 0 
 1 
 2 
 3 
 4 
 5 
--------
FIANCO 1
--------
00001 +0.0000 +0.0000 +0.0000 -0.0534 +0.9986 
00002 +0.0000 +0.0000 +0.0000 +0.0699 +0.9976 
00003 +0.0000 +0.0000 +0.0000 +0.1885 +0.9821 
00004 +0.0000 +0.0000 +0.0000 +0.3175 +0.9482 
00005 +0.0000 +0.0000 +0.0000 +0.4366 +0.8997 
00006 +0.0000 +0.0000 +0.0000 +0.5426 +0.8400 
00007 +0.0000 +0.0000 +0.0000 +0.6325 +0.7746 
00008 +0.0000 +0.0000 +0.0000 +0.7627 +0.6468 
00009 +0.0000 +0.0000 +0.0000 +0.8045 +0.5939 
00010 +0.0000 +0.0000 +0.0000 +0.7902 +0.6129 
00011 +0.0000 +0.0000 +0.0000 +0.7462 +0.6657 
00012 +0.0000 +0.0000 +0.0000 +0.5725 +0.8199 
00013 +0.0000 +0.0000 +0.0000 +0.3452 +0.9385 
00014 +0.0000 +0.0000 +0.0000 +0.0088 +1.0000 
00015 +0.0000 +0.0000 +0.0000 -0.3319 +0.9433 
--------
FIANCO 2
--------
00016 +0.0000 +0.0000 +0.0000 -0.2893 +0.9572 
00017 +0.0000 +0.0000 +0.0000 -0.2461 +0.9692 
00018 +0.0000 +0.0000 +0.0000 -0.4362 +0.8998 
00019 +0.0000 +0.0000 +0.0000 -0.6056 +0.7957 
00020 +0.0000 +0.0000 +0.0000 -0.7289 +0.6847 
00021 +0.0000 +0.0000 +0.0000 -0.8249 +0.5653 
00022 +0.0000 +0.0000 +0.0000 -0.8310 +0.5563 
00023 +0.0000 +0.0000 +0.0000 -0.8212 +0.5707 
00024 +0.0000 +0.0000 +0.0000 -0.8009 +0.5988 
00025 +0.0000 +0.0000 +0.0000 -0.7657 +0.6431 
00026 +0.0000 +0.0000 +0.0000 -0.7201 +0.6939 
00027 +0.0000 +0.0000 +0.0000 -0.6568 +0.7541 
00028 +0.0000 +0.0000 +0.0000 -0.5139 +0.8578 
00029 +0.0000 +0.0000 +0.0000 -0.3743 +0.9273 
00030 +0.0000 +0.0000 +0.0000 -0.2592 +0.9658 
00031 +0.0000 +0.0000 +0.0000 -0.1465 +0.9892 
00032 +0.0000 +0.0000 +0.0000 -0.0091 +1.0000 
00033 +0.0000 +0.0000 +0.0000 +0.1236 +0.9923 
00034 +0.0000 +0.0000 +0.0000 +0.2510 +0.9680 
00035 +0.0000 +0.0000 +0.0000 +0.3722 +0.9281 
00036 +0.0000 +0.0000 +0.0000 +0.4530 +0.8915 
00037 +0.0000 +0.0000 +0.0000 +0.5299 +0.8481 
