 +42.4875 -20.3790 +89.9994        
 +42.4752 -20.1498 +85.053         
 +42.4430 -19.9224 +80.1198        
 +42.3938 -19.6977 +75.2101        
 +42.3273 -19.4765 +70.3335        
 +42.1912 -19.1558 +63.096         
 +42.0146 -18.8518 +55.9588        
 +41.7520 -18.5166 +47.5158        
 +41.4390 -18.2214 +39.1628        
 +41.0617 -17.9597 +30.3365        
 +40.6461 -17.7581 +21.4253        
 +39.2929 -17.2134 +22.4365        
 +37.9432 -16.6410 +23.5448        
 +36.5973 -16.0376 +24.7612        
 +35.2558 -15.4000 +26.0976        
 +33.9193 -14.7244 +27.5671        
 +32.5885 -14.0058 +29.1835        
 +31.3658 -13.2463 +34.531         
 +30.1878 -12.3485 +40.0912        
 +28.9817 -11.2176 +46.1745        
 +27.8486 -9.9034 +52.2179        
 +26.6359 -8.1264 +59.0247        
 +25.5613 -6.0801 +65.405         
 +24.6471 -3.7692 +71.2721        
 +23.9154 -1.2142 +76.6284        
 +23.2253 +2.7763 +83.5574        
 +22.9900 +7.0002 +89.9997        
 +23.1296 +9.3573 +83.1621        
 +23.5553 +11.6559 +75.6718        
 +24.0746 +13.3048 +69.1882        
 +24.7832 +14.8594 +61.5749        
 +25.6202 +16.1758 +53.301         
 +26.6659 +17.3597 +43.5901        
 +27.7061 +18.2058 +34.5919        
 +28.9494 +18.9152 +24.8595        
 +30.2663 +19.4025 +15.9016        
 +31.8395 +19.7174 +6.9993         
 +33.2396 +19.8070 +0.5381         
 +34.8937 +19.7298 +5.6478         
 +36.3689 +19.5235 +10.1218        
 +38.1185 +19.1398 +14.4488        
 +38.1910 +19.1231 +11.4068        
 +38.2643 +19.1105 +8.3754         
 +38.8249 +19.0512 +3.7192         
 +39.3882 +19.0366 +0.7438         
 +39.9508 +19.0652 +5.0197         
 +40.5098 +19.1346 +9.1214         
 +41.0622 +19.2431 +13.0668        
 +41.6053 +19.3884 +16.8771        
 +41.8500 +19.4911 +28.6482        
 +42.0657 +19.6413 +40.4809        
 +42.2430 +19.8307 +52.5018        
 +42.3745 +20.0499 +64.7835        
 +42.4204 +20.1679 +71.0228        
 +42.4548 +20.2894 +77.3151        
 +42.4780 +20.4130 +83.6468        
 +42.4875 +20.5386 +89.9994        
