 +44.9401 -21.9081 +42.1427        
 +43.2532 -20.4018 +41.311         
 +41.6523 -19.0141 +40.4422        
 +40.6087 -18.1328 +39.8246        
 +39.6128 -17.3106 +39.1901        
 +37.0519 -15.2939 +37.0767        
 +34.7093 -13.5969 +34.5586        
 +32.5088 -12.1631 +31.3279        
 +30.6767 -11.1230 +27.4953        
 +28.5951 -10.1785 +20.4282        
 +27.4766 -9.8277 +13.6195        
 +26.9582 -9.7238 +8.9061         
 +26.6588 -9.6828 +7.0659         
 +26.1735 -9.5374 +27.3869        
 +25.8551 -9.3021 +45.5883        
 +25.6922 -9.0965 +57.5881        
 +25.5751 -8.8625 +69.2795        
 +25.5114 -8.6327 +79.6955        
 +25.4900 -8.3949 +89.9997        
 +25.4900 -7.8535 +89.9905        
 +25.4900 -7.3124 +89.9905        
 +25.5413 -6.7738 +79.0944        
 +25.6925 -6.2594 +68.1029        
 +25.8607 -5.9133 +60.0554        
 +26.0727 -5.5985 +52.0228        
 +26.3394 -5.3041 +43.6372        
 +26.6416 -5.0541 +35.6317        
 +26.9753 -4.8464 +28.3523        
 +27.3504 -4.6697 +22.5193        
 +28.6071 -4.0459 +29.4513        
 +30.0500 -3.1377 +34.4714        
 +32.2921 -1.4263 +39.7829        
 +34.5418 +0.5894 +43.6891        
 +36.6321 +2.6970 +46.6875        
 +38.6300 +4.9158 +49.2563        
 +40.0443 +6.6743 +53.1659        
 +41.2343 +8.3796 +57.0787        
 +42.2206 +10.0227 +61.0391        
 +43.0379 +11.6308 +65.1365        
 +43.7009 +13.2105 +69.3915        
 +44.2200 +14.7683 +73.8053        
 +44.5811 +16.2074 +78.0547        
 +44.8275 +17.6363 +82.405         
 +44.9495 +18.8561 +86.1902        
 +44.9900 +20.0732 +89.9968        
