--------
ROTORE: FS50M
 0 
 1 
 2 
 3 
 4 
 5 
--------
FIANCO 1
--------
00001 -0.0134 +0.0044 +0.0141 -0.2355 +0.9719 
00002 -0.0134 +0.0053 +0.0144 -0.1495 +0.9888 
00003 -0.0131 +0.0061 +0.0145 -0.0656 +0.9978 
00004 -0.0130 +0.0066 +0.0146 -0.0098 +1.0000 
00005 -0.0128 +0.0071 +0.0146 +0.0441 +0.9990 
00006 -0.0120 +0.0085 +0.0148 +0.1892 +0.9819 
00007 -0.0110 +0.0097 +0.0146 +0.3266 +0.9452 
00008 -0.0095 +0.0106 +0.0142 +0.4607 +0.8875 
00009 -0.0079 +0.0110 +0.0136 +0.5782 +0.8159 
00010 -0.0050 +0.0105 +0.0116 +0.7250 +0.6887 
00011 -0.0025 +0.0089 +0.0092 +0.8187 +0.5742 
00012 -0.0008 +0.0072 +0.0072 +0.8676 +0.4972 
00013 +0.0001 +0.0062 +0.0062 +0.8846 +0.4663 
00014 -0.0014 +0.0089 +0.0090 +0.6778 +0.7352 
00015 -0.0020 +0.0095 +0.0097 +0.4296 +0.9030 
00016 -0.0022 +0.0096 +0.0099 +0.2413 +0.9705 
00017 -0.0024 +0.0096 +0.0099 +0.0451 +0.9990 
00018 -0.0025 +0.0097 +0.0100 -0.1342 +0.9910 
00019 -0.0027 +0.0096 +0.0100 -0.3088 +0.9511 
--------
FIANCO 2
--------
00020 -0.0025 +0.0097 +0.0141 -0.2897 +0.9571 
00021 -0.0024 +0.0097 +0.0144 -0.2703 +0.9628 
00022 -0.0024 +0.0097 +0.0145 -0.4371 +0.8994 
00023 -0.0024 +0.0096 +0.0146 -0.5894 +0.8079 
00024 -0.0024 +0.0095 +0.0146 -0.6877 +0.7260 
00025 -0.0023 +0.0094 +0.0148 -0.7736 +0.6337 
00026 -0.0023 +0.0093 +0.0146 -0.8495 +0.5276 
00027 -0.0022 +0.0093 +0.0142 -0.9085 +0.4179 
00028 -0.0020 +0.0092 +0.0136 -0.9501 +0.3120 
00029 -0.0018 +0.0093 +0.0116 -0.9745 +0.2245 
00030 -0.0005 +0.0107 +0.0092 -0.9241 +0.3822 
00031 +0.0007 +0.0115 +0.0072 -0.8578 +0.5140 
00032 +0.0024 +0.0117 +0.0062 -0.7419 +0.6705 
00033 +0.0037 +0.0114 +0.0090 -0.6123 +0.7906 
00034 +0.0047 +0.0110 +0.0097 -0.4810 +0.8767 
00035 +0.0056 +0.0105 +0.0099 -0.3465 +0.9381 
00036 +0.0057 +0.0098 +0.0099 -0.2125 +0.9772 
00037 +0.0058 +0.0094 +0.0100 -0.0840 +0.9965 
00038 +0.0058 +0.0090 +0.0100 +0.0377 +0.9993 
00039 +0.0057 +0.0087 +0.0100 +0.1541 +0.9881 
00040 +0.0056 +0.0085 +0.0100 +0.2647 +0.9643 
00041 +0.0056 +0.0084 +0.0100 +0.3695 +0.9292 
00042 +0.0056 +0.0083 +0.0099 +0.4617 +0.8870 
00043 +0.0056 +0.0083 +0.0098 +0.5482 +0.8363 
00044 +0.0057 +0.0083 +0.0097 +0.6176 +0.7865 
00045 +0.0057 +0.0083 +0.0096 +0.6822 +0.7312 
