-0.0015
-0.0013
-0.0011
+0.0025
+0.0056
+0.0030
+0.0056
+0.0040
+0.0221
+0.0391
+0.0311
+0.0346
+0.0145
+0.0041
-0.0002
+0.0012
-0.0008
+0.0005
+0.0003
-0.0011
-0.0006
-0.0018
-0.0006
-0.0002
-0.0005
+0.0005
+0.0016
+0.0011
-0.0015
-0.0007
+0.0003
-0.0024
-0.0001
+0.0008
-0.0004
+0.0016
-0.0001
+0.0000
-0.0011
-0.0007
-0.0001
+0.0012
+0.0001
+0.0009
-0.0016
-0.0006
-0.0007
-0.0012
-0.0026
-0.0031
-0.0035
-0.0031
+0.0047
+0.0011
-0.0072
-0.0084
-0.0093
+0.0016
+0.0005
+0.0000
