+0.000
+0.001
+0.001
+0.001
-0.001
-0.001
+0.000
+0.005
+0.006
+0.005
+0.005
+0.005
+0.005
+0.005
+0.004
-0.002
-0.010
-0.005
+0.005
+0.005
+0.002
+0.004
+0.005
+0.003
+0.003
+0.005
+0.006
+0.005
+0.006
+0.009
+0.010
+0.010
+0.010
+0.006
+0.001
-0.003
+0.038
